<?xml version="1.0" encoding="utf-8"?>
<COLLADA xmlns="http://www.collada.org/2005/11/COLLADASchema" version="1.4.1" xmlns:xsi="http://www.w3.org/2001/XMLSchema-instance">
  <asset>
    <contributor>
      <author>Blender User</author>
      <authoring_tool>Blender 2.80.75</authoring_tool>
    </contributor>
    <created>2019-09-14T13:28:33</created>
    <modified>2019-09-14T13:28:33</modified>
    <unit name="meter" meter="1"/>
    <up_axis>Z_UP</up_axis>
  </asset>
  <library_effects>
    <effect id="Material-effect">
      <profile_COMMON>
        <technique sid="common">
          <lambert>
            <emission>
              <color sid="emission">0 0 0 1</color>
            </emission>
            <diffuse>
              <color sid="diffuse">0.8 0.8 0.8 1</color>
            </diffuse>
            <reflectivity>
              <float sid="specular">0.5</float>
            </reflectivity>
          </lambert>
        </technique>
      </profile_COMMON>
    </effect>
    <effect id="Copper-effect">
      <profile_COMMON>
        <technique sid="common">
          <lambert>
            <emission>
              <color sid="emission">0 0 0 1</color>
            </emission>
            <diffuse>
              <color sid="diffuse">0.8 0.8 0.8 1</color>
            </diffuse>
            <reflectivity>
              <float sid="specular">0.1</float>
            </reflectivity>
          </lambert>
        </technique>
      </profile_COMMON>
    </effect>
  </library_effects>
  <library_images/>
  <library_materials>
    <material id="Material-material" name="Material">
      <instance_effect url="#Material-effect"/>
    </material>
    <material id="Copper-material" name="Copper">
      <instance_effect url="#Copper-effect"/>
    </material>
  </library_materials>
  <library_geometries>
    <geometry id="Cylinder_001-mesh" name="Cylinder.001">
      <mesh>
        <source id="Cylinder_001-mesh-positions">
          <float_array id="Cylinder_001-mesh-positions-array" count="888">-0.3375295 -0.2835216 -0.2256777 -0.4685043 -0.2835215 -0.2256777 -0.3375295 -0.2256777 -0.2835215 -0.4685043 -0.2256776 -0.2835215 -0.3375295 0.2256777 -0.2835215 -0.4685043 0.2256777 -0.2835215 -0.3375295 0.2835215 -0.2256776 -0.4685043 0.2835217 -0.2256776 -0.3375295 0.2835215 0.2256776 -0.4685043 0.2835216 0.2256776 -0.3375295 0.2256776 0.2835215 -0.4685043 0.2256776 0.2835215 -0.3375296 -0.2256776 0.2835215 -0.4685043 -0.2256776 0.2835215 -0.3375296 -0.2835215 0.2256777 -0.4685043 -0.2835214 0.2256777 -0.3375296 -0.5 -0.315346 -0.3375295 -0.3153461 -0.5 -0.3375295 0.315346 -0.4999999 -0.3375294 0.5 -0.315346 -0.3375295 0.5 0.315346 -0.3375295 0.3153459 0.5 -0.3375296 -0.315346 0.5 -0.3375297 -0.5 0.315346 -0.3375296 -0.3917608 -0.2705119 -0.3375295 -0.2705119 -0.3917608 -0.3375295 0.2705118 -0.3917607 -0.3375294 0.3917607 -0.2705118 -0.3375295 0.3917607 0.2705118 -0.3375295 0.2705118 0.3917608 -0.3375296 -0.2705118 0.3917607 -0.3375297 -0.3917607 0.2705118 -0.4685043 -0.315346 -0.5 -0.4685043 -0.4999999 -0.315346 -0.4685043 0.3153461 -0.5 -0.4685041 0.5 -0.315346 -0.4685043 0.5 0.315346 -0.4685043 0.315346 0.5 -0.4685043 -0.3153459 0.5 -0.4685044 -0.4999999 0.315346 -0.4685043 -0.2705118 -0.3917608 -0.4685043 -0.3917607 -0.2705119 -0.4685043 0.2705119 -0.3917607 -0.4685041 0.3917608 -0.2705118 -0.4685043 0.3917608 0.2705119 -0.4685043 0.2705118 0.3917607 -0.4685043 -0.2705118 0.3917607 -0.4685044 -0.3917607 0.2705118 -0.2142729 -0.5 -0.315346 -0.2142729 -0.3153461 -0.5 -0.2142728 0.315346 -0.4999999 -0.2142729 0.5 -0.315346 -0.2142729 0.5 0.315346 -0.2142729 0.3153459 0.5 -0.214273 -0.315346 0.5 -0.214273 -0.5 0.315346 -0.214273 -0.3917608 -0.2705119 -0.2142729 -0.2705119 -0.3917608 -0.2142729 0.2705118 -0.3917607 -0.2142729 0.3917607 -0.2705118 -0.2142729 0.3917607 0.2705118 -0.2142729 0.2705118 0.3917608 -0.214273 -0.2705118 0.3917607 -0.214273 -0.3917607 0.2705118 -0.3375295 0.1051152 0.5 -0.3375295 -0.1051153 0.5 -0.4685043 -0.1051152 0.5 -0.4685043 0.1051153 0.5 -0.3375295 0.09017056 0.3917607 -0.3375295 -0.09017062 0.3917607 -0.3375295 0.07522583 0.2835215 -0.3375295 -0.07522588 0.2835215 -0.4685043 -0.09017056 0.3917607 -0.4685043 0.09017062 0.3917607 -0.4685043 -0.07522583 0.2835215 -0.4685043 0.07522588 0.2835215 -0.214273 0.1051152 0.5 -0.214273 -0.1051154 0.5 -0.214273 0.0901705 0.3917607 -0.214273 -0.09017062 0.3917607 -0.3375295 -0.1051154 -0.5 -0.3375295 0.1051153 -0.5 -0.4685043 0.1051154 -0.5 -0.4685043 -0.1051152 -0.5 -0.3375295 -0.09017062 -0.3917607 -0.3375295 0.09017056 -0.3917607 -0.3375295 -0.07522588 -0.2835215 -0.3375295 0.07522588 -0.2835215 -0.4685043 0.09017062 -0.3917607 -0.4685043 -0.09017056 -0.3917608 -0.4685043 0.07522594 -0.2835215 -0.4685043 -0.07522583 -0.2835215 -0.2142729 -0.1051154 -0.5 -0.2142729 0.1051153 -0.5 -0.2142729 -0.09017062 -0.3917607 -0.2142729 0.09017056 -0.3917607 0.3375296 -0.2835216 -0.2256777 0.4685043 -0.2835216 -0.2256776 0.3375296 -0.2256778 -0.2835215 0.4685043 -0.2256777 -0.2835215 0.3375295 0.2256776 -0.2835214 0.4685043 0.2256777 -0.2835215 0.3375295 0.2835215 -0.2256776 0.4685043 0.2835215 -0.2256776 0.3375295 0.2835215 0.2256777 0.4685043 0.2835215 0.2256777 0.3375295 0.2256775 0.2835216 0.4685043 0.2256776 0.2835215 0.3375295 -0.2256777 0.2835215 0.4685043 -0.2256777 0.2835215 0.3375295 -0.2835215 0.2256777 0.4685043 -0.2835215 0.2256777 0.3375295 -0.5 -0.315346 0.3375296 -0.3153461 -0.5 0.3375295 0.315346 -0.4999998 0.3375296 0.5 -0.315346 0.3375295 0.5 0.315346 0.3375295 0.3153459 0.5 0.3375295 -0.315346 0.5 0.3375295 -0.5 0.315346 0.3375295 -0.3917608 -0.2705118 0.3375296 -0.2705119 -0.3917607 0.3375295 0.2705118 -0.3917607 0.3375296 0.3917607 -0.2705118 0.3375295 0.3917607 0.2705119 0.3375295 0.2705118 0.3917608 0.3375295 -0.2705118 0.3917608 0.3375295 -0.3917607 0.2705119 0.4685043 -0.3153461 -0.5 0.4685043 -0.5 -0.315346 0.4685043 0.315346 -0.4999999 0.4685044 0.5 -0.3153459 0.4685043 0.5 0.3153461 0.4685043 0.3153458 0.5000001 0.4685043 -0.315346 0.5 0.4685042 -0.5 0.3153461 0.4685043 -0.2705119 -0.3917607 0.4685043 -0.3917608 -0.2705118 0.4685043 0.2705118 -0.3917607 0.4685044 0.3917607 -0.2705118 0.4685043 0.3917607 0.2705119 0.4685043 0.2705117 0.3917608 0.4685043 -0.2705119 0.3917608 0.4685042 -0.3917608 0.2705119 0.2142729 -0.5 -0.315346 0.214273 -0.3153461 -0.5 0.214273 0.315346 -0.4999998 0.214273 0.5 -0.315346 0.2142729 0.5 0.315346 0.2142729 0.3153459 0.5 0.2142729 -0.315346 0.5 0.2142729 -0.5 0.315346 0.2142729 -0.3917608 -0.2705118 0.2142729 -0.2705119 -0.3917607 0.214273 0.2705118 -0.3917607 0.214273 0.3917607 -0.2705118 0.2142729 0.3917607 0.2705119 0.2142729 0.2705118 0.3917608 0.2142729 -0.2705118 0.3917608 0.2142729 -0.3917607 0.2705119 0 -0.3153461 -0.5 0 0.315346 -0.4999999 0 0.5 -0.315346 0 0.5 0.315346 0 0.3153459 0.5 0 -0.315346 0.5 0 -0.5 0.315346 0 -0.5 -0.315346 0 -0.2705119 -0.3917607 0 0.2705118 -0.3917607 0 0.3917607 -0.2705118 0 0.3917607 0.2705118 0 0.2705118 0.3917608 0 -0.2705118 0.3917607 0 -0.3917607 0.2705119 0 -0.3917608 -0.2705119 0.3375295 0.1051152 0.5 0.3375295 -0.1051154 0.5 0.4685043 -0.1051154 0.5 0.4685043 0.1051152 0.5000001 0.3375295 0.0901705 0.3917608 0.3375295 -0.09017068 0.3917608 0.3375295 0.07522577 0.2835216 0.3375295 -0.07522594 0.2835216 0.4685043 -0.09017062 0.3917608 0.4685043 0.0901705 0.3917608 0.4685043 -0.07522594 0.2835215 0.4685043 0.07522583 0.2835215 0.2142729 0.1051152 0.5 0.2142729 -0.1051154 0.5 0.2142729 0.0901705 0.3917608 0.2142729 -0.09017062 0.3917608 0 0.1051152 0.5 0 -0.1051154 0.5 0 0.0901705 0.3917608 0 -0.09017062 0.3917607 0.3375296 -0.1051154 -0.4999999 0.3375295 0.1051152 -0.4999999 0.4685043 0.1051152 -0.4999999 0.4685043 -0.1051154 -0.4999999 0.3375296 -0.09017068 -0.3917607 0.3375295 0.0901705 -0.3917607 0.3375296 -0.07522594 -0.2835215 0.3375295 0.07522583 -0.2835215 0.4685043 0.09017056 -0.3917607 0.4685043 -0.09017062 -0.3917607 0.4685043 0.07522583 -0.2835215 0.4685043 -0.07522594 -0.2835215 0.214273 -0.1051154 -0.4999999 0.214273 0.1051152 -0.4999999 0.214273 -0.09017068 -0.3917607 0.214273 0.09017056 -0.3917607 0 -0.1051154 -0.5 0 0.1051152 -0.5 0 -0.09017062 -0.3917607 0 0.09017056 -0.3917607 0.3117511 -0.2404163 -0.09958368 -0.3117511 -0.2404162 -0.09958368 0.3117511 -0.09958368 -0.2404162 -0.311751 -0.09958362 -0.2404163 0.3117511 0.09958368 -0.2404163 -0.311751 0.09958374 -0.2404163 0.3117511 0.2404162 -0.09958362 -0.3117511 0.2404163 -0.09958368 0.3117511 0.2404162 0.09958374 -0.3117511 0.2404163 0.09958368 0.311751 0.09958356 0.2404163 -0.3117511 0.09958362 0.2404163 0.311751 -0.09958374 0.2404163 -0.3117511 -0.09958368 0.2404163 0.3117511 -0.2404163 0.09958374 -0.3117511 -0.2404162 0.09958368 -0.311751 -0.1474696 -0.3560234 -0.3117511 -0.3560234 -0.1474697 -0.311751 0.1474698 -0.3560234 -0.311751 0.3560234 -0.1474697 -0.311751 0.3560234 0.1474697 -0.3117511 0.1474696 0.3560234 -0.3117511 -0.1474696 0.3560234 -0.3117511 -0.3560234 0.1474697 0.311751 -0.3560234 -0.1474697 0.3117511 -0.1474697 -0.3560234 0.3117511 0.1474697 -0.3560234 0.3117511 0.3560234 -0.1474696 0.3117511 0.3560234 0.1474698 0.311751 0.1474696 0.3560234 0.311751 -0.1474697 0.3560234 0.311751 -0.3560234 0.1474698 0.368947 -0.1502931 0 -0.5314957 -0.150293 0 0.368947 -0.1062732 -0.1062732 -0.5314957 -0.1062732 -0.1062732 0.368947 0 -0.150293 -0.5314957 0 -0.1502931 0.368947 0.1062732 -0.1062732 -0.5314957 0.1062732 -0.1062732 0.368947 0.150293 0 -0.5314957 0.1502931 0 0.368947 0.1062732 0.1062733 -0.5314957 0.1062732 0.1062732 0.368947 0 0.1502931 -0.5314957 0 0.150293 0.368947 -0.1062732 0.1062733 -0.5314957 -0.1062732 0.1062732 -0.2919257 -0.150293 0 -0.2919257 -0.1062732 -0.1062732 -0.2919257 0 -0.1502931 -0.2919257 0.1062732 -0.1062732 -0.2919257 0.1502931 0 -0.2919257 0.1062732 0.1062732 -0.2919257 0 0.150293 -0.2919257 -0.1062732 0.1062732 0.2801917 -0.1062732 -0.1062732 0.2801917 0 -0.150293 0.2801917 0.1062732 -0.1062732 0.2801917 0.150293 0 0.2801917 0.1062732 0.1062732 0.2801917 0 0.1502931 0.2801917 -0.1062732 0.1062732 0.2801917 -0.1502931 0 0.2801917 -0.2286695 0 -0.2919257 -0.2286695 0 -0.2919257 -0.1616937 0.1616938 -0.2919258 0 0.2286695 -0.2919257 0.1616938 0.1616938 -0.2919257 0.2286695 0 -0.2919257 0.1616938 -0.1616938 -0.2919257 0 -0.2286695 -0.2919257 -0.1616937 -0.1616938 0.2801917 -0.1616938 -0.1616937 0.2801917 0 -0.2286695 0.2801917 0.1616937 -0.1616937 0.2801917 0.2286695 0 0.2801917 0.1616937 0.1616938 0.2801917 0 0.2286695 0.2801917 -0.1616938 0.1616938</float_array>
          <technique_common>
            <accessor source="#Cylinder_001-mesh-positions-array" count="296" stride="3">
              <param name="X" type="float"/>
              <param name="Y" type="float"/>
              <param name="Z" type="float"/>
            </accessor>
          </technique_common>
        </source>
        <source id="Cylinder_001-mesh-normals">
          <float_array id="Cylinder_001-mesh-normals-array" count="1518">-4.35671e-7 -0.7071069 -0.7071068 0 2.8352e-7 -1 3.21794e-7 0.7071067 -0.707107 2.27543e-7 1 1.80391e-7 4.35671e-7 0.7071068 0.7071067 0 -1.4176e-7 1 0 0.7071067 -0.707107 -2.07916e-7 -0.7071067 0.7071068 -6.82627e-7 -1 0 9.1017e-7 1 -3.10502e-7 0 1 0 0 0.7071068 0.7071069 0 1 0 0 -1.4176e-7 1 0 0.7071068 -0.7071068 0 -0.7071069 -0.7071067 0 -1 0 0 0.7071067 -0.7071069 1 0 0 1 -2.10365e-7 3.89386e-7 1 -8.7691e-7 1.32057e-7 1 -8.02865e-7 1.43983e-7 1 -4.01433e-7 0 1 -5.0892e-7 0 -1 2.00716e-7 -3.47606e-7 -1 0 0 -1 0 1.89087e-7 -1 1.90845e-7 -1.65255e-7 -1 0 -3.47606e-7 -1 5.27183e-7 1.41815e-7 -1 0 0 -1 8.4146e-7 3.89386e-7 -1 0 1.50905e-7 -1 2.28759e-7 -1.32057e-7 -1 4.01433e-7 0 -1 8.02865e-7 2.15975e-7 -1 3.81265e-7 -1.32057e-7 -3.78099e-7 1.98086e-7 -1 0 -0.707107 -0.7071066 -9.10171e-7 -1 0 -5.34182e-7 -0.7071071 0.7071065 1.2461e-7 0 1 5.41233e-7 0.7071064 0.7071073 1 -2.63592e-7 1.20982e-7 3.30793e-7 2.8352e-7 -1 1 -2.63592e-7 2.1147e-7 0 0.3826832 0.9238797 1 0 1.33342e-7 0 1 -2.20698e-7 1 0 1.54408e-7 0 -0.9238798 -0.3826832 0 -1.65255e-7 1 0 -0.7071068 0.7071069 -5.75061e-7 2.8352e-7 -1 0 -0.7071069 0.7071067 0 -1 0 0 0.7071067 0.707107 0 -0.7071068 -0.7071068 8.15492e-7 1.65255e-7 -1 1.48396e-7 -0.9238796 0.3826834 2.96793e-7 0.3826834 -0.9238796 0 1 0 0 0.9238796 0.3826833 0 -1 0 2.96793e-7 -0.3826833 -0.9238796 -3.30793e-7 -1.4176e-7 1 -2.96793e-7 -0.3826836 0.9238796 0 1.65255e-7 -1 1.48396e-7 0.9238797 -0.382683 0 -1 0 0 0 -1 0 1.65255e-7 -1 0 0 1 -6.61587e-7 0 1 0 0 -1 6.70371e-7 1.65255e-7 -1 0 1.98086e-7 -1 -1 0 0 1 0 0 1 0 0 0 0 1 -5.75061e-7 0 1 -5.41174e-7 0 1 -5.41174e-7 0 1 -3.85618e-7 0 1 0 -1.65255e-7 1 0 1.4176e-7 -1 5.75061e-7 0 -1 -8.15492e-7 -1.65255e-7 1 3.30793e-7 1.4176e-7 -1 3.30793e-7 0 -1 3.39008e-7 -1.98085e-7 1 5.1197e-7 1 0 -1 0 0 -1 0 0 1 -4.57518e-7 0 0 1.4176e-7 -1 5.41173e-7 0 -1 -2.27542e-7 -1 0 1 0 0 0 -0.7071069 -0.7071067 -2.70586e-7 2.8352e-7 -1 -8.71342e-7 0.7071065 -0.7071071 2.27543e-7 1 0 -4.35671e-7 0.7071065 0.7071071 3.47697e-7 0.7071065 -0.7071071 -4.35671e-7 -0.7071067 0.7071068 -4.55085e-7 -1 1.80391e-7 0 1 0 0 1 0 0 0.7071069 0.7071067 0 1 -1.93494e-7 0 -1 0 -1 4.20731e-7 3.89386e-7 -1 6.10024e-7 -1.32057e-7 -1 -1.37147e-7 0 -1 0 -3.89386e-7 -1 1.90632e-7 -1.32057e-7 1 0 3.47606e-7 1 0 -1.73803e-7 1 1.01784e-6 0 1 0 1.43983e-7 1 -2.00716e-7 -3.47606e-7 1 0 1.65255e-7 1 0 7.53701e-7 1 -6.10024e-7 1.32057e-7 1 0 1.50905e-7 1 -1.22005e-6 1.32057e-7 0 1.98086e-7 -1 0 -0.7071063 -0.7071074 0 -1 0 0 -0.7071065 0.7071071 0 -1.98085e-7 1 -5.21545e-7 0.7071066 0.707107 -1 0 -1.84248e-7 -3.30793e-7 2.8352e-7 -1 -1 -2.00716e-7 -1.33342e-7 -2.96793e-7 0.3826833 0.9238797 -1 0 -1.33342e-7 0 1 -1.84191e-7 -1 -2.00716e-7 -1.33342e-7 1.48396e-7 -0.9238796 -0.3826832 0 -1.65255e-7 1 0 -0.7071067 0.707107 0 2.8352e-7 -1 0 -0.7071067 0.7071068 0 -1 0 0 0.7071066 0.707107 0 -0.7071066 -0.707107 0 1.65255e-7 -1 -1 0 0 -1 0 0 -1 0 0 0 -0.9238796 0.3826835 3.85618e-7 -1.65255e-7 1 0 0.3826835 -0.9238796 0 1 0 -1.48396e-7 0.9238796 0.3826833 0 -1 0 0 -0.3826836 -0.9238796 0 -0.3826833 0.9238796 3.85618e-7 1.65255e-7 -1 0 0.9238796 -0.3826835 0 -1 0 0 0 -1 -3.85618e-7 1.65255e-7 -1 3.30793e-7 0 1 -1 0 0 -1 0 0 1 0 1.57672e-7 -1 -4.57518e-7 0 -5.75061e-7 0 1 5.75061e-7 0 1 -5.41174e-7 -2.8352e-7 1 0 0 1 -2.18662e-7 -1.65255e-7 1 -1 0 0 -1 0 0 0 1.4176e-7 -1 5.75061e-7 0 -1 1.45121e-7 0 1 1.45121e-7 -1.65255e-7 1 0 1.4176e-7 -1 6.61586e-7 0 -1 -2.84428e-7 1 0 -1 -4.57518e-7 0 0 1.4176e-7 -1 -5.41173e-7 0 -1 2.27542e-7 -1 0 -1 0 -1.57672e-7 0 -0.7071068 -0.7071067 1.62061e-7 0 -1 1.21546e-7 0.7071068 -0.7071068 0 1 0 0 0.7071065 0.7071071 0 0 1 0 0 1 0 -0.7071068 0.7071068 0 -1 0 0 -0.7071071 0.7071066 -1 4.37021e-7 0 -1 4.37022e-7 0 -1 0 0 -1 4.37021e-7 0 -1 0 0 -1 -3.23584e-7 0 -1 4.37021e-7 0 1 0 1.25563e-7 1 -6.47169e-7 5.14204e-7 1 -5.66272e-7 0 1 -3.23584e-7 0 1 3.23584e-7 0 1 -4.85377e-7 5.14204e-7 1 -4.85376e-7 0 0 -1 0 0 -0.7071066 -0.7071071 0 0 -1 1.19995e-7 0.7071068 -0.7071069 0 1 0 0 0.7071068 0.7071069 0 -0.9238796 -0.3826834 1.35182e-7 -0.3826833 -0.9238796 1.35182e-7 0.3826833 -0.9238796 0 0.9238797 -0.382683 0 0.9238796 0.3826836 0 0.3826835 0.9238796 0 -0.3826835 0.9238796 -1.5208e-7 -0.9238796 0.3826834 1 -2.23625e-7 0 1 0 3.80246e-7 1 -4.4725e-7 0 -1 -2.93955e-7 -3.80246e-7 1 -5.8791e-7 0 -1 4.4725e-7 0 0 -0.9238797 -0.382683 3.64886e-7 -0.3826832 -0.9238798 3.64886e-7 0.3826832 -0.9238796 0 0.9238796 -0.3826836 0 0.9238795 0.3826835 0 0.3826832 0.9238797 -3.64886e-7 -0.3826833 0.9238796 0 -0.9238796 0.3826835 0 -0.9238796 0.3826835 0 -0.3826835 0.9238795 0 0.3826835 0.9238795 0 0.9238795 0.3826837 0 0.9238796 -0.3826833 0 0.3826835 -0.9238796 0 -0.3826834 -0.9238796 0 -0.9238796 -0.3826836 -1 -4.4725e-7 0 1 0 1.84313e-7 -1 -2.93955e-7 -3.80246e-7 1 -2.23625e-7 -1.98295e-7 1 2.93955e-7 3.80246e-7 -1 5.8791e-7 0 -4.35671e-7 -0.7071069 -0.7071067 5.41174e-7 0 -1 4.35671e-7 0.7071071 -0.7071065 4.55085e-7 1 0 4.35671e-7 0.7071064 0.7071072 3.47697e-7 0.7071068 -0.7071068 -4.35671e-7 -0.707107 0.7071066 -4.55085e-7 -1 1.80391e-7 4.55085e-7 1 0 0 1 0 0 1 -2.23457e-7 0 -1.4176e-7 1 0 0.7071065 -0.7071071 0 -0.7071067 -0.7071069 0 -1 0 0 0.7071065 -0.7071071 1 -4.01433e-7 0 1 2.67273e-7 0 1 -4.01433e-7 -1.43983e-7 1 -1.01784e-6 0 1 -6.31094e-7 -3.89386e-7 1 -8.00656e-7 1.32057e-7 -1 0 0 -1 2.00716e-7 6.95211e-7 -1 -8.73129e-7 -1.4176e-7 -1 5.27183e-7 0 -1 4.01433e-7 5.21409e-7 -1 0 0 -1 4.01433e-7 -1.43983e-7 -1 4.01432e-7 0 -1 1.01784e-6 -1.65255e-7 -1 8.41458e-7 0 -1 4.20731e-7 0 -1 1.01784e-6 0 5.8089e-7 0 -1 -7.15082e-7 -0.7071059 -0.7071076 -9.1017e-7 -1 0 -3.47696e-7 -0.7071066 0.707107 0 -1.98085e-7 1 5.21545e-7 0.707107 0.7071067 1 0 1.84248e-7 3.30793e-7 2.8352e-7 -1 1 2.00716e-7 2.30689e-7 -2.96793e-7 0.3826834 0.9238795 1 0 1.54408e-7 0 1 -2.57079e-7 1 0 1.33342e-7 0 -0.9238795 -0.3826838 0 -0.7071068 0.7071068 0 2.8352e-7 -1 0 -0.7071069 0.7071067 0 -1 0 0 0.7071067 0.7071069 0 -0.7071067 -0.7071069 0 1.65255e-7 -1 -1.48396e-7 -0.9238793 0.3826839 -5.52574e-7 -1.65255e-7 1 0 0.3826833 -0.9238796 0 1 0 0 0.9238796 0.3826833 0 -1 -1.2854e-7 2.96793e-7 -0.3826835 -0.9238795 -3.30793e-7 -1.4176e-7 1 -2.96793e-7 -0.3826835 0.9238796 1.48396e-7 0.9238798 -0.3826832 0 -1 1.76783e-7 3.85618e-7 0 -1 3.85618e-7 1.65255e-7 -1 -6.61587e-7 0 1 3.30793e-7 0 1 -8.15492e-7 1.65255e-7 -1 4.79494e-7 0 -1 -1 0 0 1 -4.57518e-7 0 5.75061e-7 0 1 5.75061e-7 0 1 5.41174e-7 -1.4176e-7 1 0 0 1 -5.75061e-7 0 -1 -5.2525e-7 0 1 6.7037e-7 -1.65255e-7 1 3.30793e-7 1.4176e-7 -1 0 0 -1 -3.78099e-7 0 1 5.11971e-7 1 0 1 0 0 0 1.4176e-7 -1 -2.70586e-7 0 -1 -4.55085e-7 -1 0 1 0 0 0 -0.707107 -0.7071067 1.30701e-6 0.7071069 -0.7071067 0 1 0 4.35671e-7 0.7071065 0.7071071 0 0.7071072 -0.7071065 -6.43588e-7 -0.707107 0.7071067 4.55085e-7 1 -2.52066e-7 0 0.7071065 0.7071072 0 1 -2.23457e-7 0 0.7071069 -0.7071067 0 -0.7071068 -0.7071068 0 -1 0 0 0.7071067 -0.707107 -1 4.01433e-7 -1.43983e-7 -1 3.8169e-7 0 -1 4.01433e-7 0 -1 0 0 -1 3.01074e-7 0 -1 8.02865e-7 1.43983e-7 -1 5.0892e-7 0 1 -2.63592e-7 0 1 0 0 1 -9.82269e-7 0 1 -5.27183e-7 2.28248e-7 1 0 0 1 -2.72853e-7 1.4176e-7 1 -4.01433e-7 0 1 -4.01433e-7 0 1 -7.6338e-7 0 1 -4.01433e-7 0 1 -2.00716e-7 2.36473e-7 1 3.8169e-7 1.65255e-7 -3.78099e-7 0 -1 0 -1 -1.26033e-7 1.73848e-7 -0.7071071 0.7071065 2.53488e-7 0 1 0 0.7071067 0.7071069 -1 -2.63592e-7 -1.20982e-7 -1 2.63592e-7 -1.54409e-7 0 0.3826834 0.9238796 -1 0 -1.54408e-7 0 1 -1.28539e-7 -1 0 -1.54409e-7 0 -1.65255e-7 1 0 -0.7071065 0.7071072 5.75061e-7 2.8352e-7 -1 0 -1 0 0 0.7071066 0.7071071 -6.70371e-7 1.65255e-7 -1 -1 0 0 -1 0 0 -1 0 0 -1 0 0 -1.48396e-7 -0.9238798 0.3826831 -2.18662e-7 -1.65255e-7 1 0 0.3826834 -0.9238796 0 1 0 -1.48396e-7 0.9238794 0.3826838 0 -1 -1.28539e-7 0 -0.3826836 -0.9238796 0 -1.4176e-7 1 0 -0.3826835 0.9238796 0 0.9238796 -0.3826836 0 -1 0 2.18662e-7 0 -1 2.18662e-7 1.65255e-7 -1 -3.30793e-7 0 1 -1 0 0 -1 0 0 5.2525e-7 0 -1 -1.45121e-7 1.65255e-7 -1 -3.78099e-7 1.98085e-7 -1 1 -3.27423e-7 0 -1 0 0 -1 0 0 -5.75061e-7 0 1 -5.41174e-7 0 1 -2.18662e-7 0 1 -3.85618e-7 -1.65255e-7 1 -1 0 0 -1 0 0 0 1.4176e-7 -1 -5.75061e-7 0 -1 0 -1.65255e-7 1 0 1.4176e-7 -1 -3.30793e-7 0 -1 -4.40404e-7 -1.98086e-7 1 -2.84428e-7 1 0 1 0 0 1 0 0 -1 0 0 0 1.4176e-7 -1 0 -1 0 -1 0 0 0 -0.7071067 -0.707107 0 0 -1 0 0.7071069 -0.7071067 0 0.7071067 0.7071069 -1.62061e-7 0 1 -1.19995e-7 0 1 0 -0.7071067 0.7071069 -1.19995e-7 -0.7071069 0.7071067 -1 0 0 -1 5.66273e-7 -5.14204e-7 -1 8.74043e-7 0 -1 0 0 -1 8.74043e-7 -2.63524e-7 -1 4.85376e-7 0 1 -1.61792e-7 -2.14935e-7 1 0 0 1 -4.37021e-7 0 1 0 0 1 0 0 1 -4.37022e-7 0 1 -4.37021e-7 0 0 -0.7071068 -0.7071068 1.29195e-7 0 -1 0 0.7071069 -0.7071067 0 1 -2.3999e-7 0 0.7071066 0.707107 0 -0.9238796 -0.3826836 0 -0.3826835 -0.9238796 0 0.3826836 -0.9238795 0 0.9238796 -0.3826833 0 0.9238796 0.3826833 0 0.3826833 0.9238796 -1 -7.9632e-7 0 -1 7.9632e-7 0 -1 -1.19448e-6 0 0 -0.3826833 0.9238796 0 -0.9238795 0.3826837 1 7.96321e-7 0 1 -7.9632e-7 0 1 2.93955e-7 3.80246e-7 -1 4.4725e-7 0 1 -2.93955e-7 1.30329e-7 -1 2.93955e-7 -3.80246e-7 1 5.8791e-7 0 1 -2.23625e-7 0 -1 -5.8791e-7 0 0 -0.9238796 -0.3826835 3.59705e-7 -0.3826834 -0.9238796 2.09776e-7 0.3826835 -0.9238796 1.36832e-7 0.9238796 -0.3826833 0 0.9238795 0.3826837 0 0.3826833 0.9238796 0 -0.3826832 0.9238796 0 -0.9238798 0.382683 -1.20915e-7 -0.9238796 0.3826835 0 -0.3826835 0.9238796 0 0.3826834 0.9238796 0 0.9238796 0.3826834 1.20915e-7 0.9238796 -0.3826835 1.79542e-7 0.3826835 -0.9238795 0 -0.3826835 -0.9238796 0 -0.9238796 -0.3826834 1 8.94501e-7 1.98295e-7 1 0 -1.84313e-7 -1 -4.4725e-7 0 1 -2.93955e-7 3.80246e-7</float_array>
          <technique_common>
            <accessor source="#Cylinder_001-mesh-normals-array" count="506" stride="3">
              <param name="X" type="float"/>
              <param name="Y" type="float"/>
              <param name="Z" type="float"/>
            </accessor>
          </technique_common>
        </source>
        <source id="Cylinder_001-mesh-map-0">
          <float_array id="Cylinder_001-mesh-map-0-array" count="3768">1 1 0.875 0.5 1 0.5 0.7916666 1 0.75 0.5 0.7916666 0.5 0.75 0.5 0.625 1 0.625 0.5 0.625 1 0.5 0.5 0.625 0.5 0.5 1 0.375 0.5 0.5 0.5 0.2916666 0.5 0.25 1 0.25 0.5 0.1265552 0.3231198 0.6110078 0.2855851 0.6265552 0.3231198 0.25 0.5 0.125 1 0.125 0.5 0.125 0.5 0 1 0 0.5 0.1265552 0.3231198 0.7855851 0.3889922 0.2855851 0.3889923 0.5 0.5 0.625 0.5 0.625 0.5 0.8668243 0.3996611 0.7732192 0.4384335 0.8668243 0.3996611 0.7732192 0.4384335 0.6003389 0.3668241 0.7732192 0.4384335 0.2916666 0.5 0.25 0.5 0.2916666 0.5 0.5615665 0.2732192 0.6003389 0.3668241 0.6003389 0.3668241 0.875 0.5 1 0.5 1 0.5 0 0.5 0.125 0.5 0.125 0.5 0.625 0.5 0.75 0.5 0.75 0.5 0.7855851 0.3889922 0.8668243 0.3996611 0.8231199 0.3734447 0.8231199 0.3734447 0.890694 0.3420343 0.8450773 0.3204348 0.8889921 0.2144148 0.8996612 0.1331759 0.8734449 0.1768801 0.8734449 0.1768801 0.7267808 0.06156647 0.714415 0.1110078 0.6768801 0.1265552 0.7267808 0.06156647 0.6331759 0.1003389 0.6768801 0.1265552 0.6093061 0.1579657 0.6549226 0.1795651 0.6265552 0.3231198 0.5615665 0.2732192 0.6003389 0.3668241 0.7855851 0.3889922 0.6003389 0.3668241 0.7732192 0.4384335 0.3668242 0.3996611 0.25 0.49 0.2732192 0.4384334 0.4384335 0.2267807 0.4665685 0.3065685 0.4145637 0.2844075 0.4384335 0.2267807 0.4197056 0.08029437 0.49 0.25 0.2267807 0.06156647 0.4197056 0.08029437 0.3996611 0.1331759 0.1331759 0.1003389 0.25 0.00999999 0.2267807 0.06156647 0.06156647 0.2732192 0.03343141 0.1934314 0.08543628 0.2155924 0.06156647 0.2732192 0.08029431 0.4197056 0.00999999 0.25 0.2732192 0.4384334 0.08029431 0.4197056 0.1003389 0.3668241 0.3231199 0.3734448 0.2732192 0.4384334 0.2855851 0.3889923 0.3889922 0.2144148 0.4145637 0.2844075 0.3670347 0.2674248 0.3734448 0.1768801 0.4384335 0.2267807 0.3889922 0.2144148 0.2144149 0.1110078 0.3996611 0.1331759 0.3734448 0.1768801 0.2144149 0.1110078 0.1331759 0.1003389 0.2267807 0.06156647 0.1110078 0.2855851 0.08543628 0.2155924 0.1329652 0.2325751 0.1110078 0.2855851 0.1003389 0.3668241 0.06156647 0.2732192 0.2855851 0.3889923 0.1003389 0.3668241 0.1265552 0.3231198 0.5102134 0.1265552 0.6110078 0.2855851 0.4443411 0.2855851 0.2144149 0.1110078 0.6768801 0.1265552 0.1768801 0.1265552 0.2144149 0.1110078 0.8734449 0.1768801 0.714415 0.1110078 0.3734448 0.1768801 0.8889921 0.2144148 0.8734449 0.1768801 0.7223254 0.2144148 0.8231199 0.3734447 0.8889921 0.2144148 0.3231199 0.3734448 0.7855851 0.3889922 0.8231199 0.3734447 0.8668243 0.3996611 0.75 0.49 0.9197056 0.4197056 0.75 0.5 0.7916666 0.5 0.7916666 0.5 0.8996612 0.1331759 0.99 0.25 0.9197056 0.08029437 0.6003389 0.3668241 0.5802944 0.4197056 0.6003389 0.3668241 0.7267808 0.06156647 0.5802944 0.08029437 0.6331759 0.1003389 0.7732192 0.4384335 0.6003389 0.3668241 0.7732192 0.4384335 0.6003389 0.3668241 0.51 0.25 0.5802944 0.4197056 0.51 0.25 0.5615665 0.2732192 0.51 0.25 0.890694 0.3420343 0.8668243 0.3996611 0.8906941 0.3420343 0.8996612 0.1331759 0.9384335 0.2267807 0.8996612 0.1331759 0.75 0.5 0.7916666 0.5 0.7916666 0.5 0.25 0.5 0.125 0.5 0.25 0.5 0.8996612 0.1331759 0.7267808 0.06156647 0.7267808 0.06156647 0.5 0.5 0.375 0.5 0.5 0.5 0.7267808 0.06156647 0.6331759 0.1003389 0.6331759 0.1003389 0.6331759 0.1003389 0.609306 0.1579657 0.6093061 0.1579657 0.8668243 0.3996611 0.9197056 0.4197056 0.8668243 0.3996611 0.8906941 0.3420343 0.8668243 0.3996611 0.890694 0.3420343 0.7732192 0.4384335 0.75 0.49 0.75 0.49 0.5 0.5 0.625 0.5 0.625 0.5 0.99 0.25 0.9384335 0.2267807 0.99 0.25 0.7267808 0.06156647 0.8996612 0.1331759 0.7267808 0.06156647 0.9197056 0.08029437 0.8996612 0.1331759 0.8996612 0.1331759 0.2916666 0.5 0.25 0.5 0.2916666 0.5 0.7267808 0.06156647 0.75 0.00999999 0.75 0.00999999 0.6331759 0.1003389 0.6093061 0.1579657 0.609306 0.1579657 0.5802944 0.08029437 0.6331759 0.1003389 0.6331759 0.1003389 0 0.5 0.125 0.5 0.125 0.5 0.5854362 0.2155925 0.5615665 0.2732192 0.5615665 0.2732192 0.609306 0.1579657 0.5854362 0.2155925 0.5854362 0.2155925 0.375 0.5 0.3333333 0.5 0.375 0.5 0.2916666 0.5 0.3333333 0.5 0.3333333 0.5 0.5854362 0.2155925 0.5615665 0.2732192 0.5615665 0.2732192 0.5854362 0.2155925 0.609306 0.1579657 0.5854362 0.2155925 0.1768801 0.1265552 0.2776744 0.2855851 0.1110078 0.2855851 0.3670347 0.2674248 0.1329652 0.2325751 0.1549226 0.1795651 0.1768801 0.1265552 0.109306 0.1579657 0.1331759 0.1003389 0.1329652 0.2325751 0.109306 0.1579657 0.1549226 0.1795651 0.1331759 0.1003389 0.05686289 0.1368629 0.08029431 0.08029437 0.08543628 0.2155924 0.05686289 0.1368629 0.109306 0.1579657 0.6110078 0.2855851 0.5854362 0.2155925 0.5615665 0.2732192 0.6329652 0.2325751 0.6093061 0.1579657 0.5854362 0.2155925 0.375 0.5 0.3333333 0.5 0.375 0.5 0.2916666 0.5 0.3333333 0.5 0.3333333 0.5000001 0.375 0.5 0.3333333 1 0.3333333 0.5000001 0.3333333 0.5000001 0.2916666 1 0.2916666 0.5 0.9384335 0.2267807 0.9145637 0.2844075 0.9384335 0.2267807 0.8906941 0.3420343 0.9145637 0.2844075 0.9145639 0.2844076 0.8333333 0.5 0.875 0.5 0.875 0.5 0.8333333 0.5 0.7916666 0.5 0.8333333 0.5 0.9384335 0.2267807 0.9145639 0.2844076 0.9384335 0.2267807 0.890694 0.3420343 0.9145639 0.2844076 0.9145637 0.2844075 0.8333333 0.5 0.875 0.5 0.875 0.5 0.8333333 0.5 0.7916666 0.5 0.8333333 0.5 0.3889922 0.2144148 0.4897866 0.3734448 0.5556588 0.2144148 0.5556588 0.2144148 0.5102134 0.1265552 0.4443411 0.2855851 0.3231199 0.3734448 0.3906939 0.3420343 0.3668242 0.3996611 0.3450773 0.3204349 0.4145637 0.2844075 0.3906939 0.3420343 0.3668242 0.3996611 0.4431371 0.3631371 0.4197056 0.4197056 0.3906939 0.3420343 0.4665685 0.3065685 0.4431371 0.3631371 0.8889921 0.2144148 0.9145637 0.2844075 0.9384335 0.2267807 0.8450773 0.3204348 0.9145637 0.2844075 0.8670347 0.2674248 0.875 1 0.8333333 0.5 0.875 0.5 0.8333333 1 0.7916666 0.5 0.8333333 0.5 0.7223254 0.2144148 0.3435468 0.1265552 0.6564533 0.3734448 0.8670347 0.2674248 0.6329652 0.2325751 0.8450773 0.3204348 0.875 0.5 1 1 1 0.5 0.75 0.5 0.7916666 1 0.7916666 0.5 0.625 0.5 0.75 1 0.75 0.5 0.5 0.5 0.625 1 0.625 0.5 0.375 0.5 0.5 1 0.5 0.5 0.25 0.5 0.2916666 1 0.2916666 0.5 0.1265552 0.3231198 0.6110078 0.2855851 0.1110078 0.2855851 0.25 0.5 0.125 1 0.25 1 0 0.5 0.125 1 0.125 0.5 0.2855851 0.3889923 0.6265552 0.3231198 0.1265552 0.3231198 0.625 0.5 0.5 0.5 0.625 0.5 0.8668243 0.3996611 0.7732192 0.4384335 0.8668243 0.3996611 0.7732192 0.4384335 0.6003389 0.3668241 0.7732192 0.4384335 0.2916666 0.5 0.25 0.5 0.25 0.5 0.6003389 0.3668241 0.5615665 0.2732192 0.5615665 0.2732192 1 0.5 0.875 0.5 0.875 0.5 0.125 0.5 0 0.5 0.125 0.5 0.75 0.5 0.625 0.5 0.625 0.5 0.8231199 0.3734447 0.7732192 0.4384335 0.7855851 0.3889922 0.890694 0.3420343 0.8231199 0.3734447 0.8450773 0.3204348 0.8734449 0.1768801 0.9384335 0.2267807 0.8889921 0.2144148 0.7267808 0.06156647 0.8734449 0.1768801 0.714415 0.1110078 0.6331759 0.1003389 0.714415 0.1110078 0.6768801 0.1265552 0.6093061 0.1579657 0.6768801 0.1265552 0.6549226 0.1795651 0.6003389 0.3668241 0.6110078 0.2855851 0.6265552 0.3231198 0.7855851 0.3889922 0.6003389 0.3668241 0.6265552 0.3231198 0.25 0.49 0.3668242 0.3996611 0.2732192 0.4384334 0.4665685 0.3065685 0.4384335 0.2267807 0.4145637 0.2844075 0.4384335 0.2267807 0.4197056 0.08029437 0.3996611 0.1331759 0.4197056 0.08029437 0.2267807 0.06156647 0.3996611 0.1331759 0.2267807 0.06156647 0.08029431 0.08029437 0.1331759 0.1003389 0.03343141 0.1934314 0.06156647 0.2732192 0.08543628 0.2155924 0.06156647 0.2732192 0.08029431 0.4197056 0.1003389 0.3668241 0.08029431 0.4197056 0.2732192 0.4384334 0.1003389 0.3668241 0.2855851 0.3889923 0.3668242 0.3996611 0.3231199 0.3734448 0.4145637 0.2844075 0.3889922 0.2144148 0.3670347 0.2674248 0.3889922 0.2144148 0.3996611 0.1331759 0.3734448 0.1768801 0.3996611 0.1331759 0.2144149 0.1110078 0.3734448 0.1768801 0.2144149 0.1110078 0.1331759 0.1003389 0.1768801 0.1265552 0.08543628 0.2155924 0.1110078 0.2855851 0.1329652 0.2325751 0.06156647 0.2732192 0.1265552 0.3231198 0.1110078 0.2855851 0.1003389 0.3668241 0.2855851 0.3889923 0.1265552 0.3231198 0.6110078 0.2855851 0.5102134 0.1265552 0.4443411 0.2855851 0.6768801 0.1265552 0.2144149 0.1110078 0.1768801 0.1265552 0.2144149 0.1110078 0.8734449 0.1768801 0.3734448 0.1768801 0.8734449 0.1768801 0.3889922 0.2144148 0.3734448 0.1768801 0.7223254 0.2144148 0.8231199 0.3734447 0.6564533 0.3734448 0.3231199 0.3734448 0.7855851 0.3889922 0.2855851 0.3889923 0.8668243 0.3996611 0.75 0.49 0.7732192 0.4384335 0.7916666 0.5 0.75 0.5 0.7916666 0.5 0.8996612 0.1331759 0.99 0.25 0.9384335 0.2267807 0.6003389 0.3668241 0.5802944 0.4197056 0.6003389 0.3668241 0.5802944 0.08029437 0.7267808 0.06156647 0.6331759 0.1003389 0.7732192 0.4384335 0.6003389 0.3668241 0.7732192 0.4384335 0.6003389 0.3668241 0.51 0.25 0.5615665 0.2732192 0.51 0.25 0.5615665 0.2732192 0.51 0.25 0.890694 0.3420343 0.8668243 0.3996611 0.8668243 0.3996611 0.8996612 0.1331759 0.9384335 0.2267807 0.8996612 0.1331759 0.7916666 0.5 0.75 0.5 0.75 0.5 0.25 0.5 0.125 0.5 0.25 0.5 0.7267808 0.06156647 0.8996612 0.1331759 0.8996612 0.1331759 0.5 0.5 0.375 0.5 0.5 0.5 0.6331759 0.1003389 0.7267808 0.06156647 0.7267808 0.06156647 0.6093061 0.1579657 0.6331759 0.1003389 0.6331759 0.1003389 0.9431369 0.363137 0.8668243 0.3996611 0.890694 0.3420343 0.75 0.00999999 0.8996612 0.1331759 0.7267808 0.06156647 0.5568629 0.1368629 0.6331759 0.1003389 0.6093061 0.1579657 0.7732192 0.4384335 0.5802944 0.4197056 0.6003389 0.3668241 0.8668243 0.3996611 0.9197056 0.4197056 0.9197056 0.4197056 0.890694 0.3420343 0.8668243 0.3996611 0.8906941 0.3420343 0.75 0.49 0.7732192 0.4384335 0.75 0.49 0.625 0.5 0.5 0.5 0.625 0.5 0.99 0.25 0.9384335 0.2267807 0.99 0.25 0.7267808 0.06156647 0.8996612 0.1331759 0.7267808 0.06156647 0.8996612 0.1331759 0.9197056 0.08029437 0.9197056 0.08029437 0.2916666 0.5 0.25 0.5 0.2916666 0.5 0.75 0.00999999 0.7267808 0.06156647 0.7267808 0.06156647 0.609306 0.1579657 0.6331759 0.1003389 0.6331759 0.1003389 0.6331759 0.1003389 0.5802944 0.08029437 0.6331759 0.1003389 0.125 0.5 0 0.5 0 0.5 0.5615665 0.2732192 0.5854362 0.2155925 0.5615665 0.2732192 0.5854362 0.2155925 0.609306 0.1579657 0.5854362 0.2155925 0.375 0.5 0.3333333 0.5 0.375 0.5 0.3333333 0.5 0.2916666 0.5 0.2916666 0.5 0.5615665 0.2732192 0.5334314 0.1934314 0.5854362 0.2155925 0.5854362 0.2155925 0.5568629 0.1368629 0.6093061 0.1579657 0.5615665 0.2732192 0.5854362 0.2155925 0.5615665 0.2732192 0.5854362 0.2155925 0.6093061 0.1579657 0.5854362 0.2155925 0.1110078 0.2855851 0.3435468 0.1265552 0.1768801 0.1265552 0.3670347 0.2674248 0.1329652 0.2325751 0.3450773 0.3204349 0.1768801 0.1265552 0.109306 0.1579657 0.1549226 0.1795651 0.109306 0.1579657 0.1329652 0.2325751 0.1549226 0.1795651 0.1331759 0.1003389 0.05686289 0.1368629 0.109306 0.1579657 0.05686289 0.1368629 0.08543628 0.2155924 0.109306 0.1579657 0.6110078 0.2855851 0.5854362 0.2155925 0.6329652 0.2325751 0.6329652 0.2325751 0.6093061 0.1579657 0.6549226 0.1795651 0.375 0.5 0.3333333 0.5 0.3333333 0.5000001 0.3333333 0.5000001 0.2916666 0.5 0.2916666 0.5 0.3333333 0.5000001 0.375 1 0.375 0.5 0.3333333 0.5000001 0.2916666 1 0.3333333 1 0.9384335 0.2267807 0.9145639 0.2844076 0.9384335 0.2267807 0.9145639 0.2844076 0.890694 0.3420343 0.8906941 0.3420343 0.9384335 0.2267807 0.9665685 0.3065685 0.9145637 0.2844075 0.9665685 0.3065685 0.890694 0.3420343 0.9145637 0.2844075 0.875 0.5 0.8333333 0.5 0.875 0.5 0.8333333 0.5 0.7916666 0.5 0.8333333 0.5 0.9384335 0.2267807 0.9145639 0.2844076 0.9145637 0.2844075 0.9145637 0.2844075 0.8906941 0.3420343 0.890694 0.3420343 0.875 0.5 0.8333333 0.5 0.875 0.5 0.8333333 0.5 0.7916666 0.5 0.8333333 0.5 0.3889922 0.2144148 0.4897866 0.3734448 0.3231199 0.3734448 0.4443411 0.2855851 0.4897866 0.3734448 0.5556588 0.2144148 0.3231199 0.3734448 0.3906939 0.3420343 0.3450773 0.3204349 0.3450773 0.3204349 0.4145637 0.2844075 0.3670347 0.2674248 0.3668242 0.3996611 0.4431371 0.3631371 0.3906939 0.3420343 0.3906939 0.3420343 0.4665685 0.3065685 0.4145637 0.2844075 0.8889921 0.2144148 0.9145637 0.2844075 0.8670347 0.2674248 0.9145637 0.2844075 0.8450773 0.3204348 0.8670347 0.2674248 0.8333333 0.5 0.875 1 0.875 0.5 0.7916666 0.5 0.8333333 1 0.8333333 0.5 0.6564533 0.3734448 0.2776744 0.2855851 0.7223254 0.2144148 0.6329652 0.2325751 0.8670347 0.2674248 0.8450773 0.3204348 1 0.5 0.875 1 0.875 0.5 0.875 1 0.75 0.5 0.875 0.5 0.75 1 0.625 0.5 0.75 0.5 0.625 0.5 0.5 1 0.5 0.5 0.5 1 0.375 0.5 0.5 0.5 0.375 0.5 0.25 1 0.25 0.5 0.8645994 0.3645992 0.4120678 0.25 0.3645992 0.3645992 0.25 1 0.125 0.5 0.25 0.5 0.125 1 0 0.5 0.125 0.5 0.9120678 0.25 0.3645992 0.1354008 0.4120678 0.25 0.25 0.4120678 0.4197056 0.4197056 0.25 0.49 0.3645992 0.3645992 0.49 0.25 0.4197056 0.4197056 0.4120678 0.25 0.4197056 0.08029437 0.49 0.25 0.25 0.08793222 0.4197056 0.08029437 0.3645992 0.1354008 0.25 0.08793222 0.08029431 0.08029437 0.25 0.00999999 0.1354007 0.1354008 0.00999999 0.25 0.08029431 0.08029437 0.1354007 0.3645992 0.00999999 0.25 0.08793222 0.25 0.1354007 0.3645992 0.25 0.49 0.08029431 0.4197056 0.8645994 0.3645992 0.75 0.49 0.9197056 0.4197056 0.8645994 0.3645992 0.99 0.25 0.9120678 0.25 0.9120678 0.25 0.9197056 0.08029437 0.8645994 0.1354008 0.8645994 0.1354008 0.75 0.00999999 0.75 0.08793222 0.75 0.08793222 0.5802944 0.08029437 0.6354008 0.1354008 0.6354008 0.1354008 0.51 0.25 0.5879322 0.25 0.5879322 0.25 0.5802944 0.4197056 0.6354008 0.3645992 0.6354008 0.3645992 0.75 0.49 0.7500001 0.4120678 0.75 0.08793222 0.3645992 0.1354008 0.8645994 0.1354008 0.6354008 0.1354008 0.25 0.08793222 0.75 0.08793222 0.5879322 0.25 0.1354007 0.1354008 0.6354008 0.1354008 0.6354008 0.3645992 0.08793222 0.25 0.5879322 0.25 0.6354008 0.3645992 0.25 0.4120678 0.1354007 0.3645992 0.7500001 0.4120678 0.3645992 0.3645992 0.25 0.4120678 1 1 0.875 0.8292683 1 0.8292683 0.875 1 0.75 0.8292683 0.875 0.8292683 0.75 1 0.625 0.8292683 0.75 0.8292683 0.625 0.8292683 0.5 1 0.5 0.8292683 0.5 0.8292683 0.375 1 0.375 0.8292683 0.375 0.8292683 0.25 1 0.25 0.8292683 0.00999999 0.25 0.25 0.00999999 0.49 0.25 0.25 0.8292683 0.125 1 0.125 0.8292683 0.125 1 0 0.8292683 0.125 0.8292683 0.9197056 0.08029437 0.5802944 0.08029437 0.5802944 0.4197056 0.25 0.6004909 0.125 0.6004909 0.125 0.6004909 1 0.8292683 0.875 0.8292683 1 0.8292683 0.375 0.6004911 0.25 0.6004909 0.25 0.6004909 0.75 0.8292683 0.875 0.8292683 0.875 0.8292683 0.5 0.6004911 0.375 0.6004911 0.375 0.6004911 0.75 0.8292683 0.625 0.8292683 0.75 0.8292683 0.5 0.6004911 0.625 0.600491 0.5 0.6004911 0.5 0.8292683 0.625 0.8292683 0.625 0.8292683 1 0.600491 0.875 0.5 1 0.5 0.875 0.6004911 0.75 0.5 0.875 0.5 0.75 0.6004909 0.625 0.5 0.75 0.5 0.625 0.5 0.5 0.6004911 0.5 0.5 0.5 0.5 0.375 0.6004911 0.375 0.5 0.375 0.5 0.25 0.6004909 0.25 0.5 0.25 0.6004909 0.125 0.5 0.25 0.5 0.125 0.6004909 0 0.5 0.125 0.5 0.125 0.6004909 0 0.8292683 0 0.6004909 0.25 0.6004909 0.125 0.8292683 0.125 0.6004909 0.375 0.8292683 0.25 0.6004909 0.375 0.6004911 0.5 0.6004911 0.375 0.8292683 0.375 0.6004911 0.625 0.600491 0.5 0.8292683 0.5 0.6004911 0.75 0.8292683 0.625 0.600491 0.75 0.6004909 0.875 0.6004911 0.75 0.8292683 0.75 0.6004909 1 0.8292683 0.875 0.6004911 1 0.600491 0 0.8292683 0.125 0.8292683 0.125 0.8292683 0 0.6004909 0.125 0.6004909 0 0.6004909 0.25 0.8292683 0.125 0.8292683 0.25 0.8292683 1 0.600491 0.875 0.6004911 0.875 0.6004911 0.25 0.8292683 0.375 0.8292683 0.375 0.8292683 0.75 0.6004909 0.875 0.6004911 0.75 0.6004909 0.5 0.8292683 0.375 0.8292683 0.5 0.8292683 0.75 0.6004909 0.625 0.600491 0.625 0.600491 1 1 0.875 1 0.875 0.5 0.7916666 1 0.75 1 0.75 0.5 0.75 0.5 0.75 1 0.625 1 0.625 1 0.5 1 0.5 0.5 0.5 1 0.375 1 0.375 0.5 0.2916666 0.5 0.2916666 1 0.25 1 0.1265552 0.3231198 0.1110078 0.2855851 0.6110078 0.2855851 0.25 0.5 0.25 1 0.125 1 0.125 0.5 0.125 1 0 1 0.1265552 0.3231198 0.6265552 0.3231198 0.7855851 0.3889922 0.5 0.5 0.5 0.5 0.625 0.5 0.8668243 0.3996611 0.7732192 0.4384335 0.7732192 0.4384335 0.7732192 0.4384335 0.6003389 0.3668241 0.6003389 0.3668241 0.2916666 0.5 0.25 0.5 0.25 0.5 0.5615665 0.2732192 0.5615665 0.2732192 0.6003389 0.3668241 0.875 0.5 0.875 0.5 1 0.5 0 0.5 0 0.5 0.125 0.5 0.625 0.5 0.625 0.5 0.75 0.5 0.7855851 0.3889922 0.7732192 0.4384335 0.8668243 0.3996611 0.8231199 0.3734447 0.8668243 0.3996611 0.890694 0.3420343 0.8889921 0.2144148 0.9384335 0.2267807 0.8996612 0.1331759 0.8734449 0.1768801 0.8996612 0.1331759 0.7267808 0.06156647 0.6768801 0.1265552 0.714415 0.1110078 0.7267808 0.06156647 0.6768801 0.1265552 0.6331759 0.1003389 0.6093061 0.1579657 0.6265552 0.3231198 0.6110078 0.2855851 0.5615665 0.2732192 0.7855851 0.3889922 0.6265552 0.3231198 0.6003389 0.3668241 0.3668242 0.3996611 0.4197056 0.4197056 0.25 0.49 0.4384335 0.2267807 0.49 0.25 0.4665685 0.3065685 0.4384335 0.2267807 0.3996611 0.1331759 0.4197056 0.08029437 0.2267807 0.06156647 0.25 0.00999999 0.4197056 0.08029437 0.1331759 0.1003389 0.08029431 0.08029437 0.25 0.00999999 0.06156647 0.2732192 0.00999999 0.25 0.03343141 0.1934314 0.06156647 0.2732192 0.1003389 0.3668241 0.08029431 0.4197056 0.2732192 0.4384334 0.25 0.49 0.08029431 0.4197056 0.3231199 0.3734448 0.3668242 0.3996611 0.2732192 0.4384334 0.3889922 0.2144148 0.4384335 0.2267807 0.4145637 0.2844075 0.3734448 0.1768801 0.3996611 0.1331759 0.4384335 0.2267807 0.2144149 0.1110078 0.2267807 0.06156647 0.3996611 0.1331759 0.2144149 0.1110078 0.1768801 0.1265552 0.1331759 0.1003389 0.1110078 0.2855851 0.06156647 0.2732192 0.08543628 0.2155924 0.1110078 0.2855851 0.1265552 0.3231198 0.1003389 0.3668241 0.2855851 0.3889923 0.2732192 0.4384334 0.1003389 0.3668241 0.5102134 0.1265552 0.6768801 0.1265552 0.6110078 0.2855851 0.2144149 0.1110078 0.714415 0.1110078 0.6768801 0.1265552 0.2144149 0.1110078 0.3734448 0.1768801 0.8734449 0.1768801 0.3734448 0.1768801 0.3889922 0.2144148 0.8889921 0.2144148 0.7223254 0.2144148 0.6564533 0.3734448 0.8231199 0.3734447 0.3231199 0.3734448 0.2855851 0.3889923 0.7855851 0.3889922 0.8668243 0.3996611 0.7732192 0.4384335 0.75 0.49 0.75 0.5 0.75 0.5 0.7916666 0.5 0.8996612 0.1331759 0.9384335 0.2267807 0.99 0.25 0.6003389 0.3668241 0.5802944 0.4197056 0.5802944 0.4197056 0.7267808 0.06156647 0.75 0.00999999 0.5802944 0.08029437 0.7732192 0.4384335 0.6003389 0.3668241 0.6003389 0.3668241 0.6003389 0.3668241 0.5615665 0.2732192 0.51 0.25 0.51 0.25 0.5615665 0.2732192 0.5615665 0.2732192 0.890694 0.3420343 0.8668243 0.3996611 0.8668243 0.3996611 0.8996612 0.1331759 0.9384335 0.2267807 0.9384335 0.2267807 0.75 0.5 0.75 0.5 0.7916666 0.5 0.25 0.5 0.125 0.5 0.125 0.5 0.8996612 0.1331759 0.8996612 0.1331759 0.7267808 0.06156647 0.5 0.5 0.375 0.5 0.375 0.5 0.7267808 0.06156647 0.7267808 0.06156647 0.6331759 0.1003389 0.6331759 0.1003389 0.6331759 0.1003389 0.609306 0.1579657 0.8668243 0.3996611 0.9197056 0.4197056 0.9197056 0.4197056 0.8906941 0.3420343 0.8668243 0.3996611 0.8668243 0.3996611 0.7732192 0.4384335 0.7732192 0.4384335 0.75 0.49 0.5 0.5 0.5 0.5 0.625 0.5 0.99 0.25 0.9384335 0.2267807 0.9384335 0.2267807 0.7267808 0.06156647 0.8996612 0.1331759 0.8996612 0.1331759 0.9197056 0.08029437 0.9197056 0.08029437 0.8996612 0.1331759 0.2916666 0.5 0.25 0.5 0.25 0.5 0.7267808 0.06156647 0.7267808 0.06156647 0.75 0.00999999 0.6331759 0.1003389 0.6331759 0.1003389 0.6093061 0.1579657 0.5802944 0.08029437 0.5802944 0.08029437 0.6331759 0.1003389 0 0.5 0 0.5 0.125 0.5 0.5854362 0.2155925 0.5854362 0.2155925 0.5615665 0.2732192 0.609306 0.1579657 0.6093061 0.1579657 0.5854362 0.2155925 0.375 0.5 0.3333333 0.5 0.3333333 0.5 0.2916666 0.5 0.2916666 0.5 0.3333333 0.5 0.5854362 0.2155925 0.5854362 0.2155925 0.5615665 0.2732192 0.5854362 0.2155925 0.6093061 0.1579657 0.609306 0.1579657 0.1768801 0.1265552 0.3435468 0.1265552 0.2776744 0.2855851 0.3670347 0.2674248 0.3450773 0.3204349 0.1329652 0.2325751 0.1768801 0.1265552 0.1549226 0.1795651 0.109306 0.1579657 0.1329652 0.2325751 0.08543628 0.2155924 0.109306 0.1579657 0.1331759 0.1003389 0.109306 0.1579657 0.05686289 0.1368629 0.08543628 0.2155924 0.03343141 0.1934314 0.05686289 0.1368629 0.6110078 0.2855851 0.6329652 0.2325751 0.5854362 0.2155925 0.6329652 0.2325751 0.6549226 0.1795651 0.6093061 0.1579657 0.375 0.5 0.3333333 0.5000001 0.3333333 0.5 0.2916666 0.5 0.2916666 0.5 0.3333333 0.5 0.375 0.5 0.375 1 0.3333333 1 0.3333333 0.5000001 0.3333333 1 0.2916666 1 0.9384335 0.2267807 0.9145639 0.2844076 0.9145637 0.2844075 0.8906941 0.3420343 0.890694 0.3420343 0.9145637 0.2844075 0.8333333 0.5 0.8333333 0.5 0.875 0.5 0.8333333 0.5 0.7916666 0.5 0.7916666 0.5 0.9384335 0.2267807 0.9145637 0.2844075 0.9145639 0.2844076 0.890694 0.3420343 0.8906941 0.3420343 0.9145639 0.2844076 0.8333333 0.5 0.8333333 0.5 0.875 0.5 0.8333333 0.5 0.7916666 0.5 0.7916666 0.5 0.3889922 0.2144148 0.3231199 0.3734448 0.4897866 0.3734448 0.5556588 0.2144148 0.4897866 0.3734448 0.5102134 0.1265552 0.3231199 0.3734448 0.3450773 0.3204349 0.3906939 0.3420343 0.3450773 0.3204349 0.3670347 0.2674248 0.4145637 0.2844075 0.3668242 0.3996611 0.3906939 0.3420343 0.4431371 0.3631371 0.3906939 0.3420343 0.4145637 0.2844075 0.4665685 0.3065685 0.8889921 0.2144148 0.8670347 0.2674248 0.9145637 0.2844075 0.8450773 0.3204348 0.890694 0.3420343 0.9145637 0.2844075 0.875 1 0.8333333 1 0.8333333 0.5 0.8333333 1 0.7916666 1 0.7916666 0.5 0.7223254 0.2144148 0.2776744 0.2855851 0.3435468 0.1265552 0.8670347 0.2674248 0.6549226 0.1795651 0.6329652 0.2325751 0.875 0.5 0.875 1 1 1 0.75 0.5 0.75 1 0.7916666 1 0.625 0.5 0.625 1 0.75 1 0.5 0.5 0.5 1 0.625 1 0.375 0.5 0.375 1 0.5 1 0.25 0.5 0.25 1 0.2916666 1 0.1265552 0.3231198 0.6265552 0.3231198 0.6110078 0.2855851 0.25 0.5 0.125 0.5 0.125 1 0 0.5 0 1 0.125 1 0.2855851 0.3889923 0.7855851 0.3889922 0.6265552 0.3231198 0.625 0.5 0.5 0.5 0.5 0.5 0.8668243 0.3996611 0.7732192 0.4384335 0.7732192 0.4384335 0.7732192 0.4384335 0.6003389 0.3668241 0.6003389 0.3668241 0.2916666 0.5 0.2916666 0.5 0.25 0.5 0.6003389 0.3668241 0.6003389 0.3668241 0.5615665 0.2732192 1 0.5 1 0.5 0.875 0.5 0.125 0.5 0 0.5 0 0.5 0.75 0.5 0.75 0.5 0.625 0.5 0.8231199 0.3734447 0.8668243 0.3996611 0.7732192 0.4384335 0.890694 0.3420343 0.8668243 0.3996611 0.8231199 0.3734447 0.8734449 0.1768801 0.8996612 0.1331759 0.9384335 0.2267807 0.7267808 0.06156647 0.8996612 0.1331759 0.8734449 0.1768801 0.6331759 0.1003389 0.7267808 0.06156647 0.714415 0.1110078 0.6093061 0.1579657 0.6331759 0.1003389 0.6768801 0.1265552 0.6003389 0.3668241 0.5615665 0.2732192 0.6110078 0.2855851 0.7855851 0.3889922 0.7732192 0.4384335 0.6003389 0.3668241 0.25 0.49 0.4197056 0.4197056 0.3668242 0.3996611 0.4665685 0.3065685 0.49 0.25 0.4384335 0.2267807 0.4384335 0.2267807 0.49 0.25 0.4197056 0.08029437 0.4197056 0.08029437 0.25 0.00999999 0.2267807 0.06156647 0.2267807 0.06156647 0.25 0.00999999 0.08029431 0.08029437 0.03343141 0.1934314 0.00999999 0.25 0.06156647 0.2732192 0.06156647 0.2732192 0.00999999 0.25 0.08029431 0.4197056 0.08029431 0.4197056 0.25 0.49 0.2732192 0.4384334 0.2855851 0.3889923 0.2732192 0.4384334 0.3668242 0.3996611 0.4145637 0.2844075 0.4384335 0.2267807 0.3889922 0.2144148 0.3889922 0.2144148 0.4384335 0.2267807 0.3996611 0.1331759 0.3996611 0.1331759 0.2267807 0.06156647 0.2144149 0.1110078 0.2144149 0.1110078 0.2267807 0.06156647 0.1331759 0.1003389 0.08543628 0.2155924 0.06156647 0.2732192 0.1110078 0.2855851 0.06156647 0.2732192 0.1003389 0.3668241 0.1265552 0.3231198 0.1003389 0.3668241 0.2732192 0.4384334 0.2855851 0.3889923 0.6110078 0.2855851 0.6768801 0.1265552 0.5102134 0.1265552 0.6768801 0.1265552 0.714415 0.1110078 0.2144149 0.1110078 0.2144149 0.1110078 0.714415 0.1110078 0.8734449 0.1768801 0.8734449 0.1768801 0.8889921 0.2144148 0.3889922 0.2144148 0.7223254 0.2144148 0.8889921 0.2144148 0.8231199 0.3734447 0.3231199 0.3734448 0.8231199 0.3734447 0.7855851 0.3889922 0.8668243 0.3996611 0.9197056 0.4197056 0.75 0.49 0.7916666 0.5 0.75 0.5 0.75 0.5 0.8996612 0.1331759 0.9197056 0.08029437 0.99 0.25 0.6003389 0.3668241 0.5802944 0.4197056 0.5802944 0.4197056 0.5802944 0.08029437 0.75 0.00999999 0.7267808 0.06156647 0.7732192 0.4384335 0.6003389 0.3668241 0.6003389 0.3668241 0.6003389 0.3668241 0.5802944 0.4197056 0.51 0.25 0.51 0.25 0.5615665 0.2732192 0.5615665 0.2732192 0.890694 0.3420343 0.8906941 0.3420343 0.8668243 0.3996611 0.8996612 0.1331759 0.9384335 0.2267807 0.9384335 0.2267807 0.7916666 0.5 0.7916666 0.5 0.75 0.5 0.25 0.5 0.125 0.5 0.125 0.5 0.7267808 0.06156647 0.7267808 0.06156647 0.8996612 0.1331759 0.5 0.5 0.375 0.5 0.375 0.5 0.6331759 0.1003389 0.6331759 0.1003389 0.7267808 0.06156647 0.6093061 0.1579657 0.609306 0.1579657 0.6331759 0.1003389 0.9431369 0.363137 0.9197056 0.4197056 0.8668243 0.3996611 0.75 0.00999999 0.9197056 0.08029437 0.8996612 0.1331759 0.5568629 0.1368629 0.5802944 0.08029437 0.6331759 0.1003389 0.7732192 0.4384335 0.75 0.49 0.5802944 0.4197056 0.8668243 0.3996611 0.8668243 0.3996611 0.9197056 0.4197056 0.890694 0.3420343 0.8668243 0.3996611 0.8668243 0.3996611 0.75 0.49 0.7732192 0.4384335 0.7732192 0.4384335 0.625 0.5 0.5 0.5 0.5 0.5 0.99 0.25 0.9384335 0.2267807 0.9384335 0.2267807 0.7267808 0.06156647 0.8996612 0.1331759 0.8996612 0.1331759 0.8996612 0.1331759 0.8996612 0.1331759 0.9197056 0.08029437 0.2916666 0.5 0.25 0.5 0.25 0.5 0.75 0.00999999 0.75 0.00999999 0.7267808 0.06156647 0.609306 0.1579657 0.6093061 0.1579657 0.6331759 0.1003389 0.6331759 0.1003389 0.5802944 0.08029437 0.5802944 0.08029437 0.125 0.5 0.125 0.5 0 0.5 0.5615665 0.2732192 0.5854362 0.2155925 0.5854362 0.2155925 0.5854362 0.2155925 0.6093061 0.1579657 0.609306 0.1579657 0.375 0.5 0.3333333 0.5 0.3333333 0.5 0.3333333 0.5 0.3333333 0.5 0.2916666 0.5 0.5615665 0.2732192 0.51 0.25 0.5334314 0.1934314 0.5854362 0.2155925 0.5334314 0.1934314 0.5568629 0.1368629 0.5615665 0.2732192 0.5854362 0.2155925 0.5854362 0.2155925 0.5854362 0.2155925 0.609306 0.1579657 0.6093061 0.1579657 0.1110078 0.2855851 0.2776744 0.2855851 0.3435468 0.1265552 0.3670347 0.2674248 0.1549226 0.1795651 0.1329652 0.2325751 0.1768801 0.1265552 0.1331759 0.1003389 0.109306 0.1579657 0.109306 0.1579657 0.08543628 0.2155924 0.1329652 0.2325751 0.1331759 0.1003389 0.08029431 0.08029437 0.05686289 0.1368629 0.05686289 0.1368629 0.03343141 0.1934314 0.08543628 0.2155924 0.6110078 0.2855851 0.5615665 0.2732192 0.5854362 0.2155925 0.6329652 0.2325751 0.5854362 0.2155925 0.6093061 0.1579657 0.375 0.5 0.375 0.5 0.3333333 0.5 0.3333333 0.5000001 0.3333333 0.5 0.2916666 0.5 0.3333333 0.5000001 0.3333333 1 0.375 1 0.3333333 0.5000001 0.2916666 0.5 0.2916666 1 0.9384335 0.2267807 0.9145637 0.2844075 0.9145639 0.2844076 0.9145639 0.2844076 0.9145637 0.2844075 0.890694 0.3420343 0.9384335 0.2267807 0.99 0.25 0.9665685 0.3065685 0.9665685 0.3065685 0.9431369 0.363137 0.890694 0.3420343 0.875 0.5 0.8333333 0.5 0.8333333 0.5 0.8333333 0.5 0.7916666 0.5 0.7916666 0.5 0.9384335 0.2267807 0.9384335 0.2267807 0.9145639 0.2844076 0.9145637 0.2844075 0.9145639 0.2844076 0.8906941 0.3420343 0.875 0.5 0.8333333 0.5 0.8333333 0.5 0.8333333 0.5 0.7916666 0.5 0.7916666 0.5 0.3889922 0.2144148 0.5556588 0.2144148 0.4897866 0.3734448 0.4443411 0.2855851 0.5102134 0.1265552 0.4897866 0.3734448 0.3231199 0.3734448 0.3668242 0.3996611 0.3906939 0.3420343 0.3450773 0.3204349 0.3906939 0.3420343 0.4145637 0.2844075 0.3668242 0.3996611 0.4197056 0.4197056 0.4431371 0.3631371 0.3906939 0.3420343 0.4431371 0.3631371 0.4665685 0.3065685 0.8889921 0.2144148 0.9384335 0.2267807 0.9145637 0.2844075 0.9145637 0.2844075 0.890694 0.3420343 0.8450773 0.3204348 0.8333333 0.5 0.8333333 1 0.875 1 0.7916666 0.5 0.7916666 1 0.8333333 1 0.6564533 0.3734448 0.3435468 0.1265552 0.2776744 0.2855851 0.6329652 0.2325751 0.6549226 0.1795651 0.8670347 0.2674248 1 0.5 1 1 0.875 1 0.875 1 0.75 1 0.75 0.5 0.75 1 0.625 1 0.625 0.5 0.625 0.5 0.625 1 0.5 1 0.5 1 0.375 1 0.375 0.5 0.375 0.5 0.375 1 0.25 1 0.8645994 0.3645992 0.9120678 0.25 0.4120678 0.25 0.25 1 0.125 1 0.125 0.5 0.125 1 0 1 0 0.5 0.9120678 0.25 0.8645994 0.1354008 0.3645992 0.1354008 0.25 0.4120678 0.3645992 0.3645992 0.4197056 0.4197056 0.3645992 0.3645992 0.4120678 0.25 0.49 0.25 0.4120678 0.25 0.3645992 0.1354008 0.4197056 0.08029437 0.25 0.08793222 0.25 0.00999999 0.4197056 0.08029437 0.25 0.08793222 0.1354007 0.1354008 0.08029431 0.08029437 0.1354007 0.1354008 0.08793222 0.25 0.00999999 0.25 0.1354007 0.3645992 0.08029431 0.4197056 0.00999999 0.25 0.1354007 0.3645992 0.25 0.4120678 0.25 0.49 0.8645994 0.3645992 0.7500001 0.4120678 0.75 0.49 0.8645994 0.3645992 0.9197056 0.4197056 0.99 0.25 0.9120678 0.25 0.99 0.25 0.9197056 0.08029437 0.8645994 0.1354008 0.9197056 0.08029437 0.75 0.00999999 0.75 0.08793222 0.75 0.00999999 0.5802944 0.08029437 0.6354008 0.1354008 0.5802944 0.08029437 0.51 0.25 0.5879322 0.25 0.51 0.25 0.5802944 0.4197056 0.6354008 0.3645992 0.5802944 0.4197056 0.75 0.49 0.75 0.08793222 0.25 0.08793222 0.3645992 0.1354008 0.6354008 0.1354008 0.1354007 0.1354008 0.25 0.08793222 0.5879322 0.25 0.08793222 0.25 0.1354007 0.1354008 0.6354008 0.3645992 0.1354007 0.3645992 0.08793222 0.25 0.6354008 0.3645992 0.7500001 0.4120678 0.25 0.4120678 0.7500001 0.4120678 0.8645994 0.3645992 0.3645992 0.3645992 1 1 0.875 1 0.875 0.8292683 0.875 1 0.75 1 0.75 0.8292683 0.75 1 0.625 1 0.625 0.8292683 0.625 0.8292683 0.625 1 0.5 1 0.5 0.8292683 0.5 1 0.375 1 0.375 0.8292683 0.375 1 0.25 1 0.49 0.25 0.4197056 0.4197056 0.00999999 0.25 0.4197056 0.4197056 0.25 0.49 0.00999999 0.25 0.25 0.49 0.08029431 0.4197056 0.00999999 0.25 0.00999999 0.25 0.08029431 0.08029437 0.25 0.00999999 0.25 0.00999999 0.4197056 0.08029437 0.49 0.25 0.25 0.8292683 0.25 1 0.125 1 0.125 1 0 1 0 0.8292683 0.5802944 0.4197056 0.75 0.49 0.9197056 0.4197056 0.9197056 0.4197056 0.99 0.25 0.5802944 0.4197056 0.99 0.25 0.9197056 0.08029437 0.5802944 0.4197056 0.9197056 0.08029437 0.75 0.00999999 0.5802944 0.08029437 0.5802944 0.08029437 0.51 0.25 0.5802944 0.4197056 0.25 0.6004909 0.25 0.6004909 0.125 0.6004909 1 0.8292683 0.875 0.8292683 0.875 0.8292683 0.375 0.6004911 0.375 0.6004911 0.25 0.6004909 0.75 0.8292683 0.75 0.8292683 0.875 0.8292683 0.5 0.6004911 0.5 0.6004911 0.375 0.6004911 0.75 0.8292683 0.625 0.8292683 0.625 0.8292683 0.5 0.6004911 0.625 0.600491 0.625 0.600491 0.5 0.8292683 0.5 0.8292683 0.625 0.8292683 1 0.600491 0.875 0.6004911 0.875 0.5 0.875 0.6004911 0.75 0.6004909 0.75 0.5 0.75 0.6004909 0.625 0.600491 0.625 0.5 0.625 0.5 0.625 0.600491 0.5 0.6004911 0.5 0.5 0.5 0.6004911 0.375 0.6004911 0.375 0.5 0.375 0.6004911 0.25 0.6004909 0.25 0.6004909 0.125 0.6004909 0.125 0.5 0.125 0.6004909 0 0.6004909 0 0.5 0.125 0.6004909 0.125 0.8292683 0 0.8292683 0.25 0.6004909 0.25 0.8292683 0.125 0.8292683 0.375 0.8292683 0.25 0.8292683 0.25 0.6004909 0.5 0.6004911 0.5 0.8292683 0.375 0.8292683 0.625 0.600491 0.625 0.8292683 0.5 0.8292683 0.75 0.8292683 0.625 0.8292683 0.625 0.600491 0.875 0.6004911 0.875 0.8292683 0.75 0.8292683 1 0.8292683 0.875 0.8292683 0.875 0.6004911 0 0.8292683 0 0.8292683 0.125 0.8292683 0 0.6004909 0.125 0.6004909 0.125 0.6004909 0.25 0.8292683 0.125 0.8292683 0.125 0.8292683 1 0.600491 1 0.600491 0.875 0.6004911 0.25 0.8292683 0.25 0.8292683 0.375 0.8292683 0.75 0.6004909 0.875 0.6004911 0.875 0.6004911 0.5 0.8292683 0.375 0.8292683 0.375 0.8292683 0.75 0.6004909 0.75 0.6004909 0.625 0.600491</float_array>
          <technique_common>
            <accessor source="#Cylinder_001-mesh-map-0-array" count="1884" stride="2">
              <param name="S" type="float"/>
              <param name="T" type="float"/>
            </accessor>
          </technique_common>
        </source>
        <vertices id="Cylinder_001-mesh-vertices">
          <input semantic="POSITION" source="#Cylinder_001-mesh-positions"/>
        </vertices>
        <triangles material="Material-material" count="564">
          <input semantic="VERTEX" source="#Cylinder_001-mesh-vertices" offset="0"/>
          <input semantic="NORMAL" source="#Cylinder_001-mesh-normals" offset="1"/>
          <input semantic="TEXCOORD" source="#Cylinder_001-mesh-map-0" offset="2" set="0"/>
          <p>33 0 0 17 0 1 16 0 2 82 1 3 18 1 4 81 1 5 18 2 6 35 2 7 19 2 8 35 3 9 20 3 10 19 3 11 36 4 12 21 4 13 20 4 14 65 5 15 38 5 16 22 5 17 14 6 18 13 6 19 12 6 20 22 7 21 39 7 22 23 7 23 23 8 24 33 8 25 16 8 26 1 9 27 14 9 28 0 9 29 20 10 30 51 10 31 19 10 32 25 11 33 56 11 34 57 11 35 24 12 36 63 12 37 56 12 38 65 13 39 54 13 40 77 13 41 30 14 42 63 14 43 31 14 44 17 15 45 48 15 46 16 15 47 16 16 48 55 16 49 23 16 50 19 17 51 50 17 52 18 17 53 0 18 54 25 18 55 2 18 56 2 18 57 84 18 58 86 18 59 4 19 60 27 19 61 6 19 62 6 20 63 28 20 64 8 20 65 10 21 66 28 21 67 29 21 68 10 18 69 68 18 70 70 18 71 14 22 72 30 22 73 31 22 74 0 23 75 31 23 76 24 23 77 40 24 78 33 24 79 41 24 80 42 25 81 82 25 82 88 25 83 42 26 84 35 26 85 34 26 86 44 27 87 35 27 88 43 27 89 45 28 90 36 28 91 44 28 92 46 25 93 66 25 94 72 25 95 46 29 96 39 29 97 38 29 98 41 30 99 39 30 100 47 30 101 3 31 102 41 31 103 1 31 104 5 25 105 88 25 106 90 25 107 7 32 108 42 32 109 5 32 110 9 33 111 43 33 112 7 33 113 9 34 114 45 34 115 44 34 116 13 25 117 72 25 118 74 25 119 13 35 120 47 35 121 46 35 122 1 36 123 47 36 124 15 36 125 75 37 126 10 37 127 70 37 128 11 38 129 8 38 130 10 38 131 8 39 132 7 39 133 6 39 134 6 40 135 5 40 136 4 40 137 86 41 138 3 41 139 2 41 140 2 42 141 1 42 142 0 42 143 57 43 144 48 43 145 49 43 146 50 44 147 213 44 148 93 44 149 59 45 150 50 45 151 51 45 152 63 46 153 166 46 154 174 46 155 60 47 156 53 47 157 61 47 158 56 48 159 174 48 160 175 48 161 63 49 162 54 49 163 55 49 164 54 50 165 173 50 166 165 50 167 84 51 168 57 51 169 94 51 170 27 52 171 58 52 172 59 52 173 18 53 174 93 53 175 81 53 176 22 54 177 55 54 178 54 54 179 27 55 180 60 55 181 28 55 182 20 56 183 53 56 184 52 56 185 28 57 186 61 57 187 29 57 188 29 58 189 78 58 190 68 58 191 57 59 192 160 59 193 168 59 194 94 51 195 168 51 196 214 51 197 56 60 198 167 60 199 48 60 200 52 61 201 162 61 202 51 61 203 50 62 204 169 62 205 161 62 206 60 63 207 170 63 208 171 63 209 51 64 210 170 64 211 59 64 212 77 65 213 165 65 214 193 65 215 60 66 216 163 66 217 52 66 218 61 67 219 194 67 220 78 67 221 53 68 222 172 68 223 61 68 224 48 69 225 166 69 226 55 69 227 79 70 228 173 70 229 62 70 230 78 71 231 195 71 232 79 71 233 53 72 234 192 72 235 164 72 236 77 73 237 192 73 238 76 73 239 69 74 240 62 74 241 30 74 242 69 75 243 78 75 244 79 75 245 13 76 246 71 76 247 12 76 248 75 77 249 91 77 250 74 77 251 11 25 252 73 25 253 45 25 254 74 25 255 73 25 256 75 25 257 45 25 258 67 25 259 37 25 260 72 25 261 67 25 262 73 25 263 12 78 264 69 78 265 30 78 266 71 79 267 68 79 268 69 79 269 21 80 270 76 80 271 53 80 272 65 81 273 76 81 274 64 81 275 21 82 276 67 82 277 64 82 278 64 83 279 66 83 280 65 83 281 58 84 282 215 84 283 169 84 284 94 85 285 215 85 286 95 85 287 80 86 288 49 86 289 17 86 290 80 87 291 93 87 292 92 87 293 26 80 294 95 80 295 58 80 296 84 88 297 95 88 298 85 88 299 92 89 300 160 89 301 49 89 302 92 90 303 213 90 304 212 90 305 4 91 306 90 91 307 87 91 308 70 92 309 90 92 310 75 92 311 3 25 312 89 25 313 40 25 314 91 93 315 88 93 316 89 93 317 40 94 318 83 94 319 32 94 320 89 25 321 82 25 322 83 25 323 4 18 324 85 18 325 26 18 326 86 95 327 85 95 328 87 95 329 32 96 330 80 96 331 17 96 332 83 97 333 81 97 334 80 97 335 91 98 336 71 98 337 74 98 338 86 99 339 70 99 340 71 99 341 113 100 342 129 100 343 112 100 344 114 101 345 198 101 346 197 101 347 115 102 348 130 102 349 114 102 350 116 103 351 131 103 352 115 103 353 117 104 354 132 104 355 116 104 356 118 80 357 178 80 358 177 80 359 110 105 360 109 105 361 111 105 362 118 106 363 135 106 364 134 106 365 112 107 366 135 107 367 119 107 368 96 108 369 111 108 370 97 108 371 147 109 372 116 109 373 115 109 374 153 110 375 120 110 376 121 110 377 152 111 378 127 111 379 120 111 380 177 80 381 150 80 382 118 80 383 127 14 384 158 14 385 126 14 386 112 15 387 145 15 388 113 15 389 151 112 390 112 112 391 119 112 392 114 17 393 147 17 394 115 17 395 98 113 396 120 113 397 96 113 398 200 25 399 98 25 400 202 25 401 102 25 402 122 25 403 100 25 404 124 114 405 102 114 406 104 114 407 125 25 408 104 25 409 106 25 410 180 115 411 106 115 412 182 115 413 127 116 414 108 116 415 110 116 416 96 117 417 127 117 418 110 117 419 129 118 420 136 118 421 137 118 422 198 18 423 138 18 424 204 18 425 138 119 426 131 119 427 139 119 428 131 120 429 140 120 430 139 120 431 140 121 432 133 121 433 141 121 434 178 18 435 142 18 436 184 18 437 142 122 438 135 122 439 143 122 440 135 123 441 137 123 442 143 123 443 97 18 444 136 18 445 99 18 446 204 18 447 101 18 448 206 18 449 101 124 450 139 124 451 103 124 452 139 125 453 105 125 454 103 125 455 105 18 456 141 18 457 107 18 458 184 18 459 109 18 460 186 18 461 142 126 462 111 126 463 109 126 464 143 127 465 97 127 466 111 127 467 106 128 468 187 128 469 182 128 470 104 129 471 107 129 472 106 129 473 104 130 474 103 130 475 105 130 476 100 131 477 103 131 478 102 131 479 202 132 480 99 132 481 207 132 482 98 133 483 97 133 484 99 133 485 153 134 486 144 134 487 152 134 488 213 135 489 146 135 490 209 135 491 155 136 492 146 136 493 154 136 494 174 137 495 151 137 496 159 137 497 149 138 498 156 138 499 157 138 500 175 139 501 159 139 502 152 139 503 159 140 504 150 140 505 158 140 506 165 141 507 158 141 508 150 141 509 200 142 510 153 142 511 121 142 512 155 143 513 122 143 514 123 143 515 197 144 516 146 144 517 114 144 518 150 145 519 119 145 520 118 145 521 124 146 522 155 146 523 123 146 524 148 147 525 117 147 526 116 147 527 125 148 528 156 148 529 124 148 530 180 149 531 157 149 532 125 149 533 212 150 534 168 150 535 214 150 536 163 151 537 170 151 538 171 151 539 192 150 540 172 150 541 194 150 542 175 152 543 166 152 544 174 152 545 153 153 546 160 153 547 145 153 548 214 154 549 153 154 550 210 154 551 167 155 552 152 155 553 144 155 554 162 156 555 148 156 556 147 156 557 161 157 558 154 157 559 146 157 560 171 158 561 155 158 562 156 158 563 155 159 564 162 159 565 147 159 566 193 80 567 150 80 568 189 80 569 148 160 570 171 160 571 156 160 572 190 161 573 172 161 574 157 161 575 172 162 576 149 162 577 157 162 578 151 163 579 167 163 580 144 163 581 173 164 582 191 164 583 158 164 584 195 165 585 190 165 586 191 165 587 164 80 588 188 80 589 149 80 590 188 166 591 193 166 592 189 166 593 173 167 594 193 167 595 195 167 596 195 168 597 192 168 598 194 168 599 158 74 600 181 74 601 126 74 602 191 67 603 180 67 604 181 67 605 108 74 606 186 74 607 109 74 608 187 169 609 207 169 610 206 169 611 107 18 612 185 18 613 187 18 614 185 18 615 186 18 616 187 18 617 141 18 618 179 18 619 185 18 620 179 18 621 184 18 622 185 18 623 108 170 624 181 170 625 183 170 626 183 25 627 180 25 628 182 25 629 117 171 630 188 171 631 176 171 632 176 172 633 189 172 634 177 172 635 176 80 636 133 80 637 117 80 638 176 173 639 178 173 640 179 173 641 169 174 642 211 174 643 154 174 644 211 175 645 214 175 646 210 175 647 169 176 648 213 176 649 215 176 650 213 177 651 214 177 652 215 177 653 145 178 654 196 178 655 113 178 656 208 179 657 197 179 658 196 179 659 122 180 660 211 180 661 201 180 662 201 181 663 210 181 664 200 181 665 160 182 666 208 182 667 145 182 668 212 183 669 209 183 670 208 183 671 100 80 672 206 80 673 101 80 674 187 184 675 203 184 676 182 184 677 99 18 678 205 18 679 207 18 680 207 18 681 204 18 682 206 18 683 136 18 684 199 18 685 205 18 686 205 18 687 198 18 688 204 18 689 100 25 690 201 25 691 203 25 692 201 185 693 202 185 694 203 185 695 196 186 696 128 186 697 113 186 698 197 187 699 199 187 700 196 187 701 186 188 702 202 188 703 207 188 704 182 189 705 202 189 706 183 189 707 249 220 804 265 220 805 264 220 806 251 221 807 266 221 808 265 221 809 253 222 810 267 222 811 266 222 812 267 223 813 257 223 814 268 223 815 268 224 816 259 224 817 269 224 818 269 225 819 261 225 820 270 225 821 261 25 822 257 25 823 253 25 824 270 226 825 263 226 826 271 226 827 263 227 828 264 227 829 271 227 830 254 18 831 258 18 832 262 18 833 277 228 834 295 228 835 278 228 836 264 25 837 288 25 838 281 25 839 276 229 840 294 229 841 277 229 842 266 25 843 288 25 844 265 25 845 275 230 846 293 230 847 276 230 848 266 231 849 286 231 850 287 231 851 275 232 852 291 232 853 292 232 854 268 233 855 286 233 856 267 233 857 279 234 858 250 234 859 248 234 860 272 235 861 252 235 862 250 235 863 273 236 864 254 236 865 252 236 866 254 237 867 275 237 868 256 237 869 256 238 870 276 238 871 258 238 872 258 239 873 277 239 874 260 239 875 277 240 876 262 240 877 260 240 878 278 241 879 248 241 880 262 241 881 295 242 882 281 242 883 280 242 884 294 243 885 282 243 886 295 243 887 284 244 888 294 244 889 293 244 890 292 245 891 284 245 892 293 245 893 291 246 894 285 246 895 292 246 896 287 247 897 291 247 898 290 247 899 289 248 900 287 248 901 290 248 902 281 249 903 289 249 904 280 249 905 264 250 906 282 250 907 271 250 908 279 251 909 295 251 910 280 251 911 270 252 912 282 252 913 283 252 914 279 253 915 289 253 916 272 253 917 270 25 918 284 25 919 269 25 920 273 254 921 289 254 922 290 254 923 268 255 924 284 255 925 285 255 926 273 18 927 291 18 928 274 18 929 33 256 930 32 256 931 17 256 932 82 257 933 34 257 934 18 257 935 18 258 936 34 258 937 35 258 938 35 259 939 36 259 940 20 259 941 36 260 942 37 260 943 21 260 944 65 80 945 66 80 946 38 80 947 14 261 948 15 261 949 13 261 950 22 262 951 38 262 952 39 262 953 23 263 954 39 263 955 33 263 956 1 264 957 15 264 958 14 264 959 20 265 960 52 265 961 51 265 962 25 147 963 24 147 964 56 147 965 24 266 966 31 266 967 63 266 968 65 267 969 22 267 970 54 267 971 30 268 972 62 268 973 63 268 974 17 269 975 49 269 976 48 269 977 16 270 978 48 270 979 55 270 980 19 271 981 51 271 982 50 271 983 0 272 984 24 272 985 25 272 986 2 273 987 25 273 988 84 273 989 4 274 990 26 274 991 27 274 992 6 275 993 27 275 994 28 275 995 10 276 996 8 276 997 28 276 998 10 79 999 29 79 1000 68 79 1001 14 18 1002 12 18 1003 30 18 1004 0 277 1005 14 277 1006 31 277 1007 40 278 1008 32 278 1009 33 278 1010 42 25 1011 34 25 1012 82 25 1013 42 279 1014 43 279 1015 35 279 1016 44 280 1017 36 280 1018 35 280 1019 45 281 1020 37 281 1021 36 281 1022 46 25 1023 38 25 1024 66 25 1025 46 282 1026 47 282 1027 39 282 1028 41 283 1029 33 283 1030 39 283 1031 3 284 1032 40 284 1033 41 284 1034 5 25 1035 42 25 1036 88 25 1037 7 285 1038 43 285 1039 42 285 1040 9 286 1041 44 286 1042 43 286 1043 9 287 1044 11 287 1045 45 287 1046 13 25 1047 46 25 1048 72 25 1049 13 288 1050 15 288 1051 47 288 1052 1 289 1053 41 289 1054 47 289 1055 75 290 1056 11 290 1057 10 290 1058 11 291 1059 9 291 1060 8 291 1061 8 292 1062 9 292 1063 7 292 1064 6 293 1065 7 293 1066 5 293 1067 86 294 1068 91 294 1069 3 294 1070 2 295 1071 3 295 1072 1 295 1073 57 296 1074 56 296 1075 48 296 1076 50 297 1077 161 297 1078 213 297 1079 59 298 1080 58 298 1081 50 298 1082 63 299 1083 55 299 1084 166 299 1085 60 300 1086 52 300 1087 53 300 1088 56 301 1089 63 301 1090 174 301 1091 63 302 1092 62 302 1093 54 302 1094 54 303 1095 62 303 1096 173 303 1097 84 142 1098 25 142 1099 57 142 1100 27 304 1101 26 304 1102 58 304 1103 18 305 1104 50 305 1105 93 305 1106 22 306 1107 23 306 1108 55 306 1109 27 307 1110 59 307 1111 60 307 1112 20 308 1113 21 308 1114 53 308 1115 28 309 1116 60 309 1117 61 309 1118 29 310 1119 61 310 1120 78 310 1121 57 311 1122 49 311 1123 160 311 1124 94 312 1125 57 312 1126 168 312 1127 56 313 1128 175 313 1129 167 313 1130 52 314 1131 163 314 1132 162 314 1133 50 315 1134 58 315 1135 169 315 1136 60 316 1137 59 316 1138 170 316 1139 51 317 1140 162 317 1141 170 317 1142 77 318 1143 54 318 1144 165 318 1145 60 319 1146 171 319 1147 163 319 1148 61 149 1149 172 149 1150 194 149 1151 53 320 1152 164 320 1153 172 320 1154 48 321 1155 167 321 1156 166 321 1157 79 322 1158 195 322 1159 173 322 1160 78 323 1161 194 323 1162 195 323 1163 53 324 1164 76 324 1165 192 324 1166 77 325 1167 193 325 1168 192 325 1169 69 74 1170 79 74 1171 62 74 1172 69 326 1173 68 326 1174 78 326 1175 13 327 1176 74 327 1177 71 327 1178 75 77 1179 90 77 1180 91 77 1181 11 25 1182 75 25 1183 73 25 1184 74 25 1185 72 25 1186 73 25 1187 45 25 1188 73 25 1189 67 25 1190 72 328 1191 66 328 1192 67 328 1193 12 329 1194 71 329 1195 69 329 1196 71 18 1197 70 18 1198 68 18 1199 21 330 1200 64 330 1201 76 330 1202 65 331 1203 77 331 1204 76 331 1205 21 80 1206 37 80 1207 67 80 1208 64 332 1209 67 332 1210 66 332 1211 58 333 1212 95 333 1213 215 333 1214 94 51 1215 214 51 1216 215 51 1217 80 96 1218 92 96 1219 49 96 1220 80 334 1221 81 334 1222 93 334 1223 26 335 1224 85 335 1225 95 335 1226 84 336 1227 94 336 1228 95 336 1229 92 337 1230 212 337 1231 160 337 1232 92 338 1233 93 338 1234 213 338 1235 4 339 1236 5 339 1237 90 339 1238 70 340 1239 87 340 1240 90 340 1241 3 25 1242 91 25 1243 89 25 1244 91 25 1245 90 25 1246 88 25 1247 40 25 1248 89 25 1249 83 25 1250 89 25 1251 88 25 1252 82 25 1253 4 18 1254 87 18 1255 85 18 1256 86 341 1257 84 341 1258 85 341 1259 32 342 1260 83 342 1261 80 342 1262 83 343 1263 82 343 1264 81 343 1265 91 344 1266 86 344 1267 71 344 1268 86 345 1269 87 345 1270 70 345 1271 113 346 1272 128 346 1273 129 346 1274 114 74 1275 130 74 1276 198 74 1277 115 347 1278 131 347 1279 130 347 1280 116 348 1281 132 348 1282 131 348 1283 117 349 1284 133 349 1285 132 349 1286 118 80 1287 134 80 1288 178 80 1289 110 350 1290 108 350 1291 109 350 1292 118 351 1293 119 351 1294 135 351 1295 112 198 1296 129 198 1297 135 198 1298 96 352 1299 110 352 1300 111 352 1301 147 193 1302 148 193 1303 116 193 1304 153 353 1305 152 353 1306 120 353 1307 152 354 1308 159 354 1309 127 354 1310 177 80 1311 189 80 1312 150 80 1313 127 355 1314 159 355 1315 158 355 1316 112 356 1317 144 356 1318 145 356 1319 151 357 1320 144 357 1321 112 357 1322 114 358 1323 146 358 1324 147 358 1325 98 359 1326 121 359 1327 120 359 1328 200 360 1329 121 360 1330 98 360 1331 102 361 1332 123 361 1333 122 361 1334 124 362 1335 123 362 1336 102 362 1337 125 363 1338 124 363 1339 104 363 1340 180 25 1341 125 25 1342 106 25 1343 127 364 1344 126 364 1345 108 364 1346 96 365 1347 120 365 1348 127 365 1349 129 366 1350 128 366 1351 136 366 1352 198 18 1353 130 18 1354 138 18 1355 138 367 1356 130 367 1357 131 367 1358 131 368 1359 132 368 1360 140 368 1361 140 369 1362 132 369 1363 133 369 1364 178 18 1365 134 18 1366 142 18 1367 142 370 1368 134 370 1369 135 370 1370 135 371 1371 129 371 1372 137 371 1373 97 372 1374 137 372 1375 136 372 1376 204 18 1377 138 18 1378 101 18 1379 101 373 1380 138 373 1381 139 373 1382 139 374 1383 140 374 1384 105 374 1385 105 375 1386 140 375 1387 141 375 1388 184 18 1389 142 18 1390 109 18 1391 142 376 1392 143 376 1393 111 376 1394 143 377 1395 137 377 1396 97 377 1397 106 378 1398 107 378 1399 187 378 1400 104 148 1401 105 148 1402 107 148 1403 104 379 1404 102 379 1405 103 379 1406 100 380 1407 101 380 1408 103 380 1409 202 381 1410 98 381 1411 99 381 1412 98 382 1413 96 382 1414 97 382 1415 153 383 1416 145 383 1417 144 383 1418 213 144 1419 161 144 1420 146 144 1421 155 384 1422 147 384 1423 146 384 1424 174 385 1425 166 385 1426 151 385 1427 149 386 1428 148 386 1429 156 386 1430 175 387 1431 174 387 1432 159 387 1433 159 388 1434 151 388 1435 150 388 1436 165 303 1437 173 303 1438 158 303 1439 200 389 1440 210 389 1441 153 389 1442 155 390 1443 154 390 1444 122 390 1445 197 391 1446 209 391 1447 146 391 1448 150 304 1449 151 304 1450 119 304 1451 124 392 1452 156 392 1453 155 392 1454 148 393 1455 149 393 1456 117 393 1457 125 100 1458 157 100 1459 156 100 1460 180 394 1461 190 394 1462 157 394 1463 212 395 1464 160 395 1465 168 395 1466 163 396 1467 162 396 1468 170 396 1469 192 397 1470 164 397 1471 172 397 1472 175 398 1473 167 398 1474 166 398 1475 153 399 1476 168 399 1477 160 399 1478 214 400 1479 168 400 1480 153 400 1481 167 401 1482 175 401 1483 152 401 1484 162 402 1485 163 402 1486 148 402 1487 161 403 1488 169 403 1489 154 403 1490 171 404 1491 170 404 1492 155 404 1493 155 405 1494 170 405 1495 162 405 1496 193 406 1497 165 406 1498 150 406 1499 148 407 1500 163 407 1501 171 407 1502 190 67 1503 194 67 1504 172 67 1505 172 408 1506 164 408 1507 149 408 1508 151 409 1509 166 409 1510 167 409 1511 173 410 1512 195 410 1513 191 410 1514 195 411 1515 194 411 1516 190 411 1517 164 166 1518 192 166 1519 188 166 1520 188 412 1521 192 412 1522 193 412 1523 173 413 1524 165 413 1525 193 413 1526 195 414 1527 193 414 1528 192 414 1529 158 415 1530 191 415 1531 181 415 1532 191 416 1533 190 416 1534 180 416 1535 108 417 1536 183 417 1537 186 417 1538 187 169 1539 186 169 1540 207 169 1541 107 18 1542 141 18 1543 185 18 1544 185 18 1545 184 18 1546 186 18 1547 141 18 1548 133 18 1549 179 18 1550 179 418 1551 178 418 1552 184 418 1553 108 419 1554 126 419 1555 181 419 1556 183 420 1557 181 420 1558 180 420 1559 117 80 1560 149 80 1561 188 80 1562 176 421 1563 188 421 1564 189 421 1565 176 422 1566 179 422 1567 133 422 1568 176 80 1569 177 80 1570 178 80 1571 169 423 1572 215 423 1573 211 423 1574 211 424 1575 215 424 1576 214 424 1577 169 425 1578 161 425 1579 213 425 1580 213 426 1581 212 426 1582 214 426 1583 145 427 1584 208 427 1585 196 427 1586 208 428 1587 209 428 1588 197 428 1589 122 80 1590 154 80 1591 211 80 1592 201 429 1593 211 429 1594 210 429 1595 160 430 1596 212 430 1597 208 430 1598 212 431 1599 213 431 1600 209 431 1601 100 432 1602 203 432 1603 206 432 1604 187 433 1605 206 433 1606 203 433 1607 99 18 1608 136 18 1609 205 18 1610 207 434 1611 205 434 1612 204 434 1613 136 435 1614 128 435 1615 199 435 1616 205 18 1617 199 18 1618 198 18 1619 100 25 1620 122 25 1621 201 25 1622 201 436 1623 200 436 1624 202 436 1625 196 437 1626 199 437 1627 128 437 1628 197 74 1629 198 74 1630 199 74 1631 186 438 1632 183 438 1633 202 438 1634 182 439 1635 203 439 1636 202 439 1637 249 466 1734 251 466 1735 265 466 1736 251 467 1737 253 467 1738 266 467 1739 253 468 1740 255 468 1741 267 468 1742 267 469 1743 255 469 1744 257 469 1745 268 470 1746 257 470 1747 259 470 1748 269 471 1749 259 471 1750 261 471 1751 253 25 1752 251 25 1753 261 25 1754 251 25 1755 249 25 1756 261 25 1757 249 472 1758 263 472 1759 261 472 1760 261 473 1761 259 473 1762 257 473 1763 257 474 1764 255 474 1765 253 474 1766 270 475 1767 261 475 1768 263 475 1769 263 476 1770 249 476 1771 264 476 1772 262 477 1773 248 477 1774 250 477 1775 250 18 1776 252 18 1777 262 18 1778 252 18 1779 254 18 1780 262 18 1781 254 478 1782 256 478 1783 258 478 1784 258 18 1785 260 18 1786 262 18 1787 277 479 1788 294 479 1789 295 479 1790 264 480 1791 265 480 1792 288 480 1793 276 481 1794 293 481 1795 294 481 1796 266 482 1797 287 482 1798 288 482 1799 275 483 1800 292 483 1801 293 483 1802 266 25 1803 267 25 1804 286 25 1805 275 484 1806 274 484 1807 291 484 1808 268 485 1809 285 485 1810 286 485 1811 279 486 1812 272 486 1813 250 486 1814 272 487 1815 273 487 1816 252 487 1817 273 488 1818 274 488 1819 254 488 1820 254 489 1821 274 489 1822 275 489 1823 256 490 1824 275 490 1825 276 490 1826 258 491 1827 276 491 1828 277 491 1829 277 492 1830 278 492 1831 262 492 1832 278 493 1833 279 493 1834 248 493 1835 295 494 1836 282 494 1837 281 494 1838 294 495 1839 283 495 1840 282 495 1841 284 496 1842 283 496 1843 294 496 1844 292 497 1845 285 497 1846 284 497 1847 291 498 1848 286 498 1849 285 498 1850 287 499 1851 286 499 1852 291 499 1853 289 500 1854 288 500 1855 287 500 1856 281 501 1857 288 501 1858 289 501 1859 264 25 1860 281 25 1861 282 25 1862 279 502 1863 278 502 1864 295 502 1865 270 25 1866 271 25 1867 282 25 1868 279 503 1869 280 503 1870 289 503 1871 270 482 1872 283 482 1873 284 482 1874 273 18 1875 272 18 1876 289 18 1877 268 504 1878 269 504 1879 284 504 1880 273 505 1881 290 505 1882 291 505 1883</p>
        </triangles>
        <triangles material="Copper-material" count="64">
          <input semantic="VERTEX" source="#Cylinder_001-mesh-vertices" offset="0"/>
          <input semantic="NORMAL" source="#Cylinder_001-mesh-normals" offset="1"/>
          <input semantic="TEXCOORD" source="#Cylinder_001-mesh-map-0" offset="2" set="0"/>
          <p>240 190 708 232 190 709 241 190 710 232 191 711 242 191 712 241 191 713 234 192 714 243 192 715 242 192 716 243 193 717 236 193 718 244 193 719 236 194 720 245 194 721 244 194 722 245 195 723 238 195 724 246 195 725 219 196 726 220 196 727 221 196 728 238 197 729 247 197 730 246 197 731 239 198 732 240 198 733 247 198 734 221 199 735 222 199 736 223 199 737 217 200 738 232 200 739 233 200 740 219 25 741 234 25 742 232 25 743 221 201 744 235 201 745 234 201 746 225 202 747 235 202 748 223 202 749 225 203 750 237 203 751 236 203 752 227 204 753 238 204 754 237 204 755 231 205 756 238 205 757 229 205 758 231 206 759 233 206 760 239 206 761 218 207 762 240 207 763 241 207 764 218 18 765 242 18 766 220 18 767 220 208 768 243 208 769 222 208 770 222 209 771 244 209 772 224 209 773 224 210 774 245 210 775 226 210 776 226 211 777 246 211 778 228 211 779 228 212 780 247 212 781 230 212 782 230 213 783 240 213 784 216 213 785 222 214 786 225 214 787 223 214 788 224 215 789 227 215 790 225 215 791 226 216 792 229 216 793 227 216 794 228 217 795 231 217 796 229 217 797 231 218 798 216 218 799 217 218 800 217 219 801 218 219 802 219 219 803 240 440 1638 233 440 1639 232 440 1640 232 441 1641 234 441 1642 242 441 1643 234 442 1644 235 442 1645 243 442 1646 243 193 1647 235 193 1648 236 193 1649 236 443 1650 237 443 1651 245 443 1652 245 444 1653 237 444 1654 238 444 1655 219 445 1656 218 445 1657 220 445 1658 238 446 1659 239 446 1660 247 446 1661 239 198 1662 233 198 1663 240 198 1664 221 447 1665 220 447 1666 222 447 1667 217 448 1668 219 448 1669 232 448 1670 219 25 1671 221 25 1672 234 25 1673 221 449 1674 223 449 1675 235 449 1676 225 450 1677 236 450 1678 235 450 1679 225 451 1680 227 451 1681 237 451 1682 227 25 1683 229 25 1684 238 25 1685 231 452 1686 239 452 1687 238 452 1688 231 453 1689 217 453 1690 233 453 1691 218 454 1692 216 454 1693 240 454 1694 218 18 1695 241 18 1696 242 18 1697 220 455 1698 242 455 1699 243 455 1700 222 456 1701 243 456 1702 244 456 1703 224 457 1704 244 457 1705 245 457 1706 226 458 1707 245 458 1708 246 458 1709 228 459 1710 246 459 1711 247 459 1712 230 460 1713 247 460 1714 240 460 1715 222 214 1716 224 214 1717 225 214 1718 224 461 1719 226 461 1720 227 461 1721 226 462 1722 228 462 1723 229 462 1724 228 463 1725 230 463 1726 231 463 1727 231 464 1728 230 464 1729 216 464 1730 217 465 1731 216 465 1732 218 465 1733</p>
        </triangles>
      </mesh>
    </geometry>
  </library_geometries>
  <library_visual_scenes>
    <visual_scene id="Scene" name="Scene">
      <node id="ElectricMotor" name="ElectricMotor" type="NODE">
        <matrix sid="transform">1 0 0 0 0 1 0 0 0 0 1 0 0 0 0 1</matrix>
        <instance_geometry url="#Cylinder_001-mesh" name="ElectricMotor">
          <bind_material>
            <technique_common>
              <instance_material symbol="Material-material" target="#Material-material">
                <bind_vertex_input semantic="UVMap" input_semantic="TEXCOORD" input_set="0"/>
              </instance_material>
              <instance_material symbol="Copper-material" target="#Copper-material">
                <bind_vertex_input semantic="UVMap" input_semantic="TEXCOORD" input_set="0"/>
              </instance_material>
            </technique_common>
          </bind_material>
        </instance_geometry>
      </node>
    </visual_scene>
  </library_visual_scenes>
  <scene>
    <instance_visual_scene url="#Scene"/>
  </scene>
</COLLADA>